%TF.GenerationSoftware,KiCad,Pcbnew,(5.1.9)-1*%
%TF.CreationDate,2021-02-26T15:03:44+01:00*%
%TF.ProjectId,Peritel_Commutator,50657269-7465-46c5-9f43-6f6d6d757461,rev?*%
%TF.SameCoordinates,Original*%
%TF.FileFunction,Legend,Bot*%
%TF.FilePolarity,Positive*%
%FSLAX46Y46*%
G04 Gerber Fmt 4.6, Leading zero omitted, Abs format (unit mm)*
G04 Created by KiCad (PCBNEW (5.1.9)-1) date 2021-02-26 15:03:44*
%MOMM*%
%LPD*%
G01*
G04 APERTURE LIST*
%ADD10C,0.100000*%
%ADD11C,0.254000*%
G04 APERTURE END LIST*
D10*
%TO.C,J7*%
X192400000Y-153990000D02*
X175900000Y-153990000D01*
X192400000Y-206690000D02*
X192400000Y-153990000D01*
X175900000Y-206690000D02*
X192400000Y-206690000D01*
X175900000Y-153990000D02*
X175900000Y-206690000D01*
%TO.C,J1*%
X47620000Y-153990000D02*
X31120000Y-153990000D01*
X47620000Y-206690000D02*
X47620000Y-153990000D01*
X31120000Y-206690000D02*
X47620000Y-206690000D01*
X31120000Y-153990000D02*
X31120000Y-206690000D01*
%TO.C,J8*%
X216530000Y-153990000D02*
X200030000Y-153990000D01*
X216530000Y-206690000D02*
X216530000Y-153990000D01*
X200030000Y-206690000D02*
X216530000Y-206690000D01*
X200030000Y-153990000D02*
X200030000Y-206690000D01*
%TO.C,J6*%
X168270000Y-153990000D02*
X151770000Y-153990000D01*
X168270000Y-206690000D02*
X168270000Y-153990000D01*
X151770000Y-206690000D02*
X168270000Y-206690000D01*
X151770000Y-153990000D02*
X151770000Y-206690000D01*
%TO.C,J5*%
X144140000Y-153990000D02*
X127640000Y-153990000D01*
X144140000Y-206690000D02*
X144140000Y-153990000D01*
X127640000Y-206690000D02*
X144140000Y-206690000D01*
X127640000Y-153990000D02*
X127640000Y-206690000D01*
%TO.C,J4*%
X120010000Y-153990000D02*
X103510000Y-153990000D01*
X120010000Y-206690000D02*
X120010000Y-153990000D01*
X103510000Y-206690000D02*
X120010000Y-206690000D01*
X103510000Y-153990000D02*
X103510000Y-206690000D01*
%TO.C,J3*%
X95880000Y-153990000D02*
X79380000Y-153990000D01*
X95880000Y-206690000D02*
X95880000Y-153990000D01*
X79380000Y-206690000D02*
X95880000Y-206690000D01*
X79380000Y-153990000D02*
X79380000Y-206690000D01*
%TO.C,J2*%
X71750000Y-153990000D02*
X55250000Y-153990000D01*
X71750000Y-206690000D02*
X71750000Y-153990000D01*
X55250000Y-206690000D02*
X71750000Y-206690000D01*
X55250000Y-153990000D02*
X55250000Y-206690000D01*
%TO.C,J0*%
X47620000Y-18100000D02*
X31120000Y-18100000D01*
X47620000Y-70800000D02*
X47620000Y-18100000D01*
X31120000Y-70800000D02*
X47620000Y-70800000D01*
X31120000Y-18100000D02*
X31120000Y-70800000D01*
%TO.C,J7*%
D11*
X189804523Y-179916666D02*
X190711666Y-179916666D01*
X190893095Y-179856190D01*
X191014047Y-179735238D01*
X191074523Y-179553809D01*
X191074523Y-179432857D01*
X189804523Y-180400476D02*
X189804523Y-181247142D01*
X191074523Y-180702857D01*
%TO.C,J1*%
X45024523Y-179916666D02*
X45931666Y-179916666D01*
X46113095Y-179856190D01*
X46234047Y-179735238D01*
X46294523Y-179553809D01*
X46294523Y-179432857D01*
X46294523Y-181186666D02*
X46294523Y-180460952D01*
X46294523Y-180823809D02*
X45024523Y-180823809D01*
X45205952Y-180702857D01*
X45326904Y-180581904D01*
X45387380Y-180460952D01*
%TO.C,J8*%
X213934523Y-179916666D02*
X214841666Y-179916666D01*
X215023095Y-179856190D01*
X215144047Y-179735238D01*
X215204523Y-179553809D01*
X215204523Y-179432857D01*
X214478809Y-180702857D02*
X214418333Y-180581904D01*
X214357857Y-180521428D01*
X214236904Y-180460952D01*
X214176428Y-180460952D01*
X214055476Y-180521428D01*
X213995000Y-180581904D01*
X213934523Y-180702857D01*
X213934523Y-180944761D01*
X213995000Y-181065714D01*
X214055476Y-181126190D01*
X214176428Y-181186666D01*
X214236904Y-181186666D01*
X214357857Y-181126190D01*
X214418333Y-181065714D01*
X214478809Y-180944761D01*
X214478809Y-180702857D01*
X214539285Y-180581904D01*
X214599761Y-180521428D01*
X214720714Y-180460952D01*
X214962619Y-180460952D01*
X215083571Y-180521428D01*
X215144047Y-180581904D01*
X215204523Y-180702857D01*
X215204523Y-180944761D01*
X215144047Y-181065714D01*
X215083571Y-181126190D01*
X214962619Y-181186666D01*
X214720714Y-181186666D01*
X214599761Y-181126190D01*
X214539285Y-181065714D01*
X214478809Y-180944761D01*
%TO.C,J6*%
X165674523Y-179916666D02*
X166581666Y-179916666D01*
X166763095Y-179856190D01*
X166884047Y-179735238D01*
X166944523Y-179553809D01*
X166944523Y-179432857D01*
X165674523Y-181065714D02*
X165674523Y-180823809D01*
X165735000Y-180702857D01*
X165795476Y-180642380D01*
X165976904Y-180521428D01*
X166218809Y-180460952D01*
X166702619Y-180460952D01*
X166823571Y-180521428D01*
X166884047Y-180581904D01*
X166944523Y-180702857D01*
X166944523Y-180944761D01*
X166884047Y-181065714D01*
X166823571Y-181126190D01*
X166702619Y-181186666D01*
X166400238Y-181186666D01*
X166279285Y-181126190D01*
X166218809Y-181065714D01*
X166158333Y-180944761D01*
X166158333Y-180702857D01*
X166218809Y-180581904D01*
X166279285Y-180521428D01*
X166400238Y-180460952D01*
%TO.C,J5*%
X141544523Y-179916666D02*
X142451666Y-179916666D01*
X142633095Y-179856190D01*
X142754047Y-179735238D01*
X142814523Y-179553809D01*
X142814523Y-179432857D01*
X141544523Y-181126190D02*
X141544523Y-180521428D01*
X142149285Y-180460952D01*
X142088809Y-180521428D01*
X142028333Y-180642380D01*
X142028333Y-180944761D01*
X142088809Y-181065714D01*
X142149285Y-181126190D01*
X142270238Y-181186666D01*
X142572619Y-181186666D01*
X142693571Y-181126190D01*
X142754047Y-181065714D01*
X142814523Y-180944761D01*
X142814523Y-180642380D01*
X142754047Y-180521428D01*
X142693571Y-180460952D01*
%TO.C,J4*%
X117414523Y-179916666D02*
X118321666Y-179916666D01*
X118503095Y-179856190D01*
X118624047Y-179735238D01*
X118684523Y-179553809D01*
X118684523Y-179432857D01*
X117837857Y-181065714D02*
X118684523Y-181065714D01*
X117354047Y-180763333D02*
X118261190Y-180460952D01*
X118261190Y-181247142D01*
%TO.C,J3*%
X93284523Y-179916666D02*
X94191666Y-179916666D01*
X94373095Y-179856190D01*
X94494047Y-179735238D01*
X94554523Y-179553809D01*
X94554523Y-179432857D01*
X93284523Y-180400476D02*
X93284523Y-181186666D01*
X93768333Y-180763333D01*
X93768333Y-180944761D01*
X93828809Y-181065714D01*
X93889285Y-181126190D01*
X94010238Y-181186666D01*
X94312619Y-181186666D01*
X94433571Y-181126190D01*
X94494047Y-181065714D01*
X94554523Y-180944761D01*
X94554523Y-180581904D01*
X94494047Y-180460952D01*
X94433571Y-180400476D01*
%TO.C,J2*%
X69154523Y-179916666D02*
X70061666Y-179916666D01*
X70243095Y-179856190D01*
X70364047Y-179735238D01*
X70424523Y-179553809D01*
X70424523Y-179432857D01*
X69275476Y-180460952D02*
X69215000Y-180521428D01*
X69154523Y-180642380D01*
X69154523Y-180944761D01*
X69215000Y-181065714D01*
X69275476Y-181126190D01*
X69396428Y-181186666D01*
X69517380Y-181186666D01*
X69698809Y-181126190D01*
X70424523Y-180400476D01*
X70424523Y-181186666D01*
%TO.C,J0*%
X38674523Y-44026666D02*
X39581666Y-44026666D01*
X39763095Y-43966190D01*
X39884047Y-43845238D01*
X39944523Y-43663809D01*
X39944523Y-43542857D01*
X38674523Y-44873333D02*
X38674523Y-44994285D01*
X38735000Y-45115238D01*
X38795476Y-45175714D01*
X38916428Y-45236190D01*
X39158333Y-45296666D01*
X39460714Y-45296666D01*
X39702619Y-45236190D01*
X39823571Y-45175714D01*
X39884047Y-45115238D01*
X39944523Y-44994285D01*
X39944523Y-44873333D01*
X39884047Y-44752380D01*
X39823571Y-44691904D01*
X39702619Y-44631428D01*
X39460714Y-44570952D01*
X39158333Y-44570952D01*
X38916428Y-44631428D01*
X38795476Y-44691904D01*
X38735000Y-44752380D01*
X38674523Y-44873333D01*
%TD*%
M02*
