EESchema Schematic File Version 4
EELAYER 30 0
EELAYER END
$Descr A2 23386 16535
encoding utf-8
Sheet 1 1
Title ""
Date ""
Rev ""
Comp ""
Comment1 ""
Comment2 ""
Comment3 ""
Comment4 ""
$EndDescr
Wire Wire Line
	2750 8950 2500 8950
Wire Wire Line
	2750 8850 2450 8850
Wire Wire Line
	2750 8750 2400 8750
Wire Wire Line
	2750 8650 2350 8650
Wire Wire Line
	2750 8550 2300 8550
$Comp
L power:GNDREF #PWR0101
U 1 1 6038AF08
P 2750 9350
F 0 "#PWR0101" H 2750 9100 50  0001 C CNN
F 1 "GNDREF" H 2755 9177 50  0000 C CNN
F 2 "" H 2750 9350 50  0001 C CNN
F 3 "" H 2750 9350 50  0001 C CNN
	1    2750 9350
	1    0    0    -1  
$EndComp
Wire Wire Line
	4250 4400 4200 4400
Wire Wire Line
	4200 4800 4300 4800
Wire Wire Line
	4200 5200 4350 5200
Wire Wire Line
	2950 5700 3000 5700
Wire Wire Line
	3600 5800 3600 5500
Wire Wire Line
	3000 5500 3600 5500
Connection ~ 3600 5500
Wire Wire Line
	3600 5500 3600 5400
Wire Wire Line
	4200 5800 3600 5800
Wire Wire Line
	3000 5300 2900 5300
Wire Wire Line
	3000 4500 2850 4500
Wire Wire Line
	3000 4300 2800 4300
Wire Wire Line
	3000 3900 2750 3900
Wire Wire Line
	4200 5400 3600 5400
Connection ~ 3600 5400
Wire Wire Line
	3600 5400 3600 5000
Wire Wire Line
	4200 5000 3600 5000
Connection ~ 3600 5000
Wire Wire Line
	3600 5000 3600 4600
Wire Wire Line
	4200 4600 3600 4600
Connection ~ 3600 4600
Wire Wire Line
	3600 4600 3600 4200
Wire Wire Line
	4200 4200 3600 4200
Connection ~ 3600 4200
Wire Wire Line
	3600 4200 3600 4100
Wire Wire Line
	3000 4100 3600 4100
Wire Wire Line
	3300 11900 3900 11900
Wire Wire Line
	2300 8550 2300 11600
Wire Wire Line
	2350 11200 2700 11200
Wire Wire Line
	2350 8650 2350 11200
Wire Wire Line
	2400 8750 2400 10800
Wire Wire Line
	2450 8850 2450 9700
Wire Wire Line
	3900 9700 2450 9700
Wire Wire Line
	3950 9650 2500 9650
Wire Wire Line
	3950 10700 3950 9650
Wire Wire Line
	3900 10700 3950 10700
Wire Wire Line
	3900 10300 3900 9700
Wire Wire Line
	2700 10800 2400 10800
Wire Wire Line
	2700 11600 2300 11600
Wire Wire Line
	3300 11800 3300 11900
Connection ~ 3300 11800
Wire Wire Line
	3300 11400 3300 11800
Connection ~ 3300 11400
Wire Wire Line
	2700 11400 3300 11400
Wire Wire Line
	3300 11000 3300 11400
Connection ~ 3300 11000
Wire Wire Line
	2700 11000 3300 11000
Wire Wire Line
	3300 10600 3300 11000
Connection ~ 3300 10600
Wire Wire Line
	2700 10600 3300 10600
Wire Wire Line
	3300 10500 3300 10600
Connection ~ 3300 10500
Wire Wire Line
	3900 10500 3300 10500
Wire Wire Line
	3300 10200 3300 10500
Wire Wire Line
	2700 10200 3300 10200
Text GLabel 12050 2650 1    50   Output ~ 0
SCART1
Text GLabel 12150 2650 1    50   Output ~ 0
SCART2
Text GLabel 12250 2650 1    50   Output ~ 0
SCART3
Text GLabel 12450 2650 1    50   Output ~ 0
SCART5
Text GLabel 12550 2650 1    50   Output ~ 0
SCART6
Text GLabel 12650 2650 1    50   Output ~ 0
SCART7
Text GLabel 12750 2650 1    50   Output ~ 0
SCART8
Text GLabel 12350 2650 1    50   Output ~ 0
SCART4
$Comp
L power:GNDREF #PWR0103
U 1 1 625B752E
P 21200 7100
F 0 "#PWR0103" H 21200 6850 50  0001 C CNN
F 1 "GNDREF" H 21205 6927 50  0000 C CNN
F 2 "" H 21200 7100 50  0001 C CNN
F 3 "" H 21200 7100 50  0001 C CNN
	1    21200 7100
	1    0    0    -1  
$EndComp
Wire Wire Line
	21200 7100 21200 7050
Wire Wire Line
	2500 8950 2500 9650
$Comp
L Connector:Barrel_Jack J-DC1
U 1 1 609EEBF1
P 7500 4050
F 0 "J-DC1" V 7511 4238 50  0000 L CNN
F 1 "DC-5V" V 7602 4238 50  0000 L CNN
F 2 "Connector_BarrelJack:BarrelJack_CUI_PJ-063AH_Horizontal" H 7550 4010 50  0001 C CNN
F 3 "~" H 7550 4010 50  0001 C CNN
	1    7500 4050
	0    1    1    0   
$EndComp
$Comp
L power:GNDREF #PWR0104
U 1 1 60A5ECA2
P 6950 4250
F 0 "#PWR0104" H 6950 4000 50  0001 C CNN
F 1 "GNDREF" H 6955 4077 50  0000 C CNN
F 2 "" H 6950 4250 50  0001 C CNN
F 3 "" H 6950 4250 50  0001 C CNN
	1    6950 4250
	-1   0    0    1   
$EndComp
Text GLabel 7350 5100 3    50   Output ~ 0
+5V
Wire Wire Line
	2550 9050 2550 9600
Wire Wire Line
	2550 9600 4000 9600
Wire Wire Line
	4000 9600 4000 11700
Wire Wire Line
	4000 11700 3900 11700
Wire Wire Line
	2550 9050 2750 9050
Wire Wire Line
	2600 9150 2600 9550
Wire Wire Line
	2600 9550 4050 9550
Wire Wire Line
	4050 9550 4050 12100
Wire Wire Line
	4050 12100 3900 12100
Wire Wire Line
	2600 9150 2750 9150
Wire Wire Line
	4350 6650 4350 9250
Connection ~ 3600 5800
Wire Wire Line
	21200 7050 21250 7050
Wire Wire Line
	3900 11500 2950 11500
Wire Wire Line
	2950 11500 2950 11750
Wire Wire Line
	2950 11750 2250 11750
Wire Wire Line
	2250 11750 2250 8250
$Comp
L Relay:EC2-5NU K1
U 1 1 60D59697
P 3050 7650
F 0 "K1" H 2420 7604 50  0000 R CNN
F 1 "EC2-5NU" H 2420 7695 50  0000 R CNN
F 2 "Relay_THT:Relay_DPDT_Kemet_EC2" H 3050 7650 50  0001 C CNN
F 3 "https://content.kemet.com/datasheets/KEM_R7002_EC2_EE2.pdf" H 3050 7650 50  0001 C CNN
	1    3050 7650
	-1   0    0    1   
$EndComp
Wire Wire Line
	2200 8200 2550 8200
Wire Wire Line
	2550 8200 2550 7950
Wire Wire Line
	2250 8250 2950 8250
Wire Wire Line
	2950 8250 2950 7950
Wire Wire Line
	3050 7350 3050 6550
Wire Wire Line
	2650 6700 2650 7350
Text GLabel 3450 7950 3    50   Input ~ 0
RELAIS1
$Comp
L SamacSys_Parts:CBT3245APW,118 IC1
U 1 1 6055B684
P 2750 8450
F 0 "IC1" H 2978 8496 50  0000 L CNN
F 1 "CBT3245APW" H 2978 8405 50  0000 L CNN
F 2 "SOP65P640X110-20N" H 3700 8550 50  0001 L CNN
F 3 "https://assets.nexperia.com/documents/data-sheet/CBT3245A.pdf" H 3700 8450 50  0001 L CNN
F 4 "CBT3245A - Octal bus switch@en-us" H 3700 8350 50  0001 L CNN "Description"
F 5 "1.1" H 3700 8250 50  0001 L CNN "Height"
F 6 "Nexperia" H 3700 8150 50  0001 L CNN "Manufacturer_Name"
F 7 "CBT3245APW,118" H 3700 8050 50  0001 L CNN "Manufacturer_Part_Number"
F 8 "771-CBT3245APW118" H 3700 7950 50  0001 L CNN "Mouser Part Number"
F 9 "https://www.mouser.com/Search/Refine.aspx?Keyword=771-CBT3245APW118" H 3700 7850 50  0001 L CNN "Mouser Price/Stock"
F 10 "CBT3245APW,118" H 3700 7750 50  0001 L CNN "Arrow Part Number"
F 11 "https://www.arrow.com/en/products/cbt3245apw118/nexperia" H 3700 7650 50  0001 L CNN "Arrow Price/Stock"
	1    2750 8450
	1    0    0    -1  
$EndComp
Text GLabel 3950 8400 1    50   Input ~ 0
SCART1
$Comp
L Device:R R2
U 1 1 60DB489F
P 7350 5900
F 0 "R2" H 7420 5946 50  0000 L CNN
F 1 "1K" H 7420 5855 50  0000 L CNN
F 2 "Resistor_THT:R_Axial_DIN0207_L6.3mm_D2.5mm_P10.16mm_Horizontal" V 7280 5900 50  0001 C CNN
F 3 "~" H 7350 5900 50  0001 C CNN
	1    7350 5900
	1    0    0    -1  
$EndComp
$Comp
L Device:R R3
U 1 1 60DB573D
P 7600 5900
F 0 "R3" H 7670 5946 50  0000 L CNN
F 1 "1K" H 7670 5855 50  0000 L CNN
F 2 "Resistor_THT:R_Axial_DIN0207_L6.3mm_D2.5mm_P10.16mm_Horizontal" V 7530 5900 50  0001 C CNN
F 3 "~" H 7600 5900 50  0001 C CNN
	1    7600 5900
	1    0    0    -1  
$EndComp
Wire Wire Line
	7350 6200 7350 6050
Wire Wire Line
	7600 6250 7600 6050
Wire Wire Line
	7350 5750 7350 5600
Wire Wire Line
	7350 5600 7600 5600
Wire Wire Line
	7600 5600 7600 5750
Text GLabel 7350 5550 1    50   Input ~ 0
+5V
Wire Wire Line
	5050 8950 4800 8950
Wire Wire Line
	5050 8850 4750 8850
Wire Wire Line
	5050 8750 4700 8750
Wire Wire Line
	5050 8650 4650 8650
Wire Wire Line
	5050 8550 4600 8550
$Comp
L power:GNDREF #PWR0106
U 1 1 60DE9637
P 5050 9350
F 0 "#PWR0106" H 5050 9100 50  0001 C CNN
F 1 "GNDREF" H 5055 9177 50  0000 C CNN
F 2 "" H 5050 9350 50  0001 C CNN
F 3 "" H 5050 9350 50  0001 C CNN
	1    5050 9350
	1    0    0    -1  
$EndComp
Wire Wire Line
	5600 11900 6200 11900
Wire Wire Line
	4600 8550 4600 11600
Wire Wire Line
	4650 11200 5000 11200
Wire Wire Line
	4650 8650 4650 11200
Wire Wire Line
	4700 8750 4700 10800
Wire Wire Line
	4750 8850 4750 9700
$Comp
L Connector:SCART-F J2
U 1 1 60DE964B
P 5600 11200
F 0 "J2" H 5600 12620 50  0000 C CNN
F 1 "SCART-INPUT-2" H 5600 12529 50  0000 C CNN
F 2 "SamacSys_Parts:KSCARTX024" H 5600 11250 50  0001 C CNN
F 3 " ~" H 5600 11250 50  0001 C CNN
	1    5600 11200
	1    0    0    -1  
$EndComp
Wire Wire Line
	6200 9700 4750 9700
Wire Wire Line
	6250 9650 4800 9650
Wire Wire Line
	6250 10700 6250 9650
Wire Wire Line
	6200 10700 6250 10700
Wire Wire Line
	6200 10300 6200 9700
Wire Wire Line
	5000 10800 4700 10800
Wire Wire Line
	5000 11600 4600 11600
Wire Wire Line
	5600 11800 5600 11900
Connection ~ 5600 11800
Wire Wire Line
	5000 11800 5600 11800
Wire Wire Line
	5600 11400 5600 11800
Connection ~ 5600 11400
Wire Wire Line
	5000 11400 5600 11400
Wire Wire Line
	5600 11000 5600 11400
Connection ~ 5600 11000
Wire Wire Line
	5000 11000 5600 11000
Wire Wire Line
	5600 10600 5600 11000
Connection ~ 5600 10600
Wire Wire Line
	5000 10600 5600 10600
Wire Wire Line
	5600 10500 5600 10600
Connection ~ 5600 10500
Wire Wire Line
	6200 10500 5600 10500
Wire Wire Line
	5600 10200 5600 10500
Wire Wire Line
	5000 10200 5600 10200
Wire Wire Line
	4800 8950 4800 9650
Wire Wire Line
	4850 9050 4850 9600
Wire Wire Line
	4850 9600 6300 9600
Wire Wire Line
	6300 9600 6300 11700
Wire Wire Line
	6300 11700 6200 11700
Wire Wire Line
	4850 9050 5050 9050
Wire Wire Line
	4900 9150 4900 9550
Wire Wire Line
	4900 9550 6350 9550
Wire Wire Line
	6350 9550 6350 12100
Wire Wire Line
	6350 12100 6200 12100
Wire Wire Line
	4900 9150 5050 9150
Wire Wire Line
	6200 11500 5250 11500
Wire Wire Line
	5250 11500 5250 11750
Wire Wire Line
	5250 11750 4550 11750
Wire Wire Line
	4550 11750 4550 8250
Wire Wire Line
	5000 11800 4500 11800
Connection ~ 5000 11800
$Comp
L Relay:EC2-5NU K2
U 1 1 60DE9688
P 5350 7650
F 0 "K2" H 4720 7604 50  0000 R CNN
F 1 "EC2-5NU" H 4720 7695 50  0000 R CNN
F 2 "Relay_THT:Relay_DPDT_Kemet_EC2" H 5350 7650 50  0001 C CNN
F 3 "https://content.kemet.com/datasheets/KEM_R7002_EC2_EE2.pdf" H 5350 7650 50  0001 C CNN
	1    5350 7650
	-1   0    0    1   
$EndComp
Wire Wire Line
	4500 8200 4850 8200
Wire Wire Line
	4500 8200 4500 11800
Wire Wire Line
	4850 8200 4850 7950
Wire Wire Line
	4550 8250 5250 8250
Wire Wire Line
	5250 8250 5250 7950
Wire Wire Line
	5350 7350 5350 6550
Wire Wire Line
	4950 6700 4950 7350
Text GLabel 5750 7950 3    50   Input ~ 0
RELAIS2
$Comp
L SamacSys_Parts:CBT3245APW,118 IC2
U 1 1 60DE96AE
P 5050 8450
F 0 "IC2" H 5278 8496 50  0000 L CNN
F 1 "CBT3245APW" H 5278 8405 50  0000 L CNN
F 2 "SOP65P640X110-20N" H 6000 8550 50  0001 L CNN
F 3 "https://assets.nexperia.com/documents/data-sheet/CBT3245A.pdf" H 6000 8450 50  0001 L CNN
F 4 "CBT3245A - Octal bus switch@en-us" H 6000 8350 50  0001 L CNN "Description"
F 5 "1.1" H 6000 8250 50  0001 L CNN "Height"
F 6 "Nexperia" H 6000 8150 50  0001 L CNN "Manufacturer_Name"
F 7 "CBT3245APW,118" H 6000 8050 50  0001 L CNN "Manufacturer_Part_Number"
F 8 "771-CBT3245APW118" H 6000 7950 50  0001 L CNN "Mouser Part Number"
F 9 "https://www.mouser.com/Search/Refine.aspx?Keyword=771-CBT3245APW118" H 6000 7850 50  0001 L CNN "Mouser Price/Stock"
F 10 "CBT3245APW,118" H 6000 7750 50  0001 L CNN "Arrow Part Number"
F 11 "https://www.arrow.com/en/products/cbt3245apw118/nexperia" H 6000 7650 50  0001 L CNN "Arrow Price/Stock"
	1    5050 8450
	1    0    0    -1  
$EndComp
Connection ~ 4950 6700
Wire Wire Line
	7300 8950 7050 8950
Wire Wire Line
	7300 8850 7000 8850
Wire Wire Line
	7300 8750 6950 8750
Wire Wire Line
	7300 8650 6900 8650
Wire Wire Line
	7300 8550 6850 8550
$Comp
L power:GNDREF #PWR0108
U 1 1 60E246B2
P 7300 9350
F 0 "#PWR0108" H 7300 9100 50  0001 C CNN
F 1 "GNDREF" H 7305 9177 50  0000 C CNN
F 2 "" H 7300 9350 50  0001 C CNN
F 3 "" H 7300 9350 50  0001 C CNN
	1    7300 9350
	1    0    0    -1  
$EndComp
Wire Wire Line
	7850 11900 8450 11900
Wire Wire Line
	6850 8550 6850 11600
Wire Wire Line
	6900 11200 7250 11200
Wire Wire Line
	6900 8650 6900 11200
Wire Wire Line
	6950 8750 6950 10800
Wire Wire Line
	7000 8850 7000 9700
$Comp
L Connector:SCART-F J3
U 1 1 60E246C2
P 7850 11200
F 0 "J3" H 7850 12620 50  0000 C CNN
F 1 "SCART-INPUT-3" H 7850 12529 50  0000 C CNN
F 2 "SamacSys_Parts:KSCARTX024" H 7850 11250 50  0001 C CNN
F 3 " ~" H 7850 11250 50  0001 C CNN
	1    7850 11200
	1    0    0    -1  
$EndComp
Wire Wire Line
	8450 9700 7000 9700
Wire Wire Line
	8500 9650 7050 9650
Wire Wire Line
	8500 10700 8500 9650
Wire Wire Line
	8450 10700 8500 10700
Wire Wire Line
	8450 10300 8450 9700
Wire Wire Line
	7250 10800 6950 10800
Wire Wire Line
	7250 11600 6850 11600
Wire Wire Line
	7850 11800 7850 11900
Connection ~ 7850 11800
Wire Wire Line
	7250 11800 7850 11800
Wire Wire Line
	7850 11400 7850 11800
Connection ~ 7850 11400
Wire Wire Line
	7250 11400 7850 11400
Wire Wire Line
	7850 11000 7850 11400
Connection ~ 7850 11000
Wire Wire Line
	7250 11000 7850 11000
Wire Wire Line
	7850 10600 7850 11000
Connection ~ 7850 10600
Wire Wire Line
	7250 10600 7850 10600
Wire Wire Line
	7850 10500 7850 10600
Connection ~ 7850 10500
Wire Wire Line
	8450 10500 7850 10500
Wire Wire Line
	7850 10200 7850 10500
Wire Wire Line
	7250 10200 7850 10200
Wire Wire Line
	7050 8950 7050 9650
Wire Wire Line
	7100 9050 7100 9600
Wire Wire Line
	7100 9600 8550 9600
Wire Wire Line
	8550 9600 8550 11700
Wire Wire Line
	8550 11700 8450 11700
Wire Wire Line
	7100 9050 7300 9050
Wire Wire Line
	7150 9150 7150 9550
Wire Wire Line
	7150 9550 8600 9550
Wire Wire Line
	8600 9550 8600 12100
Wire Wire Line
	8600 12100 8450 12100
Wire Wire Line
	7150 9150 7300 9150
Wire Wire Line
	8450 11500 7500 11500
Wire Wire Line
	7500 11500 7500 11750
Wire Wire Line
	7500 11750 6800 11750
Wire Wire Line
	6800 11750 6800 8250
Wire Wire Line
	7250 11800 6750 11800
Connection ~ 7250 11800
$Comp
L Relay:EC2-5NU K3
U 1 1 60E246FB
P 7600 7650
F 0 "K3" H 6970 7604 50  0000 R CNN
F 1 "EC2-5NU" H 6970 7695 50  0000 R CNN
F 2 "Relay_THT:Relay_DPDT_Kemet_EC2" H 7600 7650 50  0001 C CNN
F 3 "https://content.kemet.com/datasheets/KEM_R7002_EC2_EE2.pdf" H 7600 7650 50  0001 C CNN
	1    7600 7650
	-1   0    0    1   
$EndComp
Wire Wire Line
	6750 8200 7100 8200
Wire Wire Line
	6750 8200 6750 11800
Wire Wire Line
	7100 8200 7100 7950
Wire Wire Line
	6800 8250 7500 8250
Wire Wire Line
	7500 8250 7500 7950
Wire Wire Line
	7600 7350 7600 6550
Wire Wire Line
	7200 6700 7200 7350
Text GLabel 8000 7950 3    50   Input ~ 0
RELAIS3
$Comp
L SamacSys_Parts:CBT3245APW,118 IC3
U 1 1 60E24719
P 7300 8450
F 0 "IC3" H 7528 8496 50  0000 L CNN
F 1 "CBT3245APW" H 7528 8405 50  0000 L CNN
F 2 "SOP65P640X110-20N" H 8250 8550 50  0001 L CNN
F 3 "https://assets.nexperia.com/documents/data-sheet/CBT3245A.pdf" H 8250 8450 50  0001 L CNN
F 4 "CBT3245A - Octal bus switch@en-us" H 8250 8350 50  0001 L CNN "Description"
F 5 "1.1" H 8250 8250 50  0001 L CNN "Height"
F 6 "Nexperia" H 8250 8150 50  0001 L CNN "Manufacturer_Name"
F 7 "CBT3245APW,118" H 8250 8050 50  0001 L CNN "Manufacturer_Part_Number"
F 8 "771-CBT3245APW118" H 8250 7950 50  0001 L CNN "Mouser Part Number"
F 9 "https://www.mouser.com/Search/Refine.aspx?Keyword=771-CBT3245APW118" H 8250 7850 50  0001 L CNN "Mouser Price/Stock"
F 10 "CBT3245APW,118" H 8250 7750 50  0001 L CNN "Arrow Part Number"
F 11 "https://www.arrow.com/en/products/cbt3245apw118/nexperia" H 8250 7650 50  0001 L CNN "Arrow Price/Stock"
	1    7300 8450
	1    0    0    -1  
$EndComp
Text GLabel 8500 8400 1    50   Input ~ 0
SCART3
Wire Wire Line
	9550 8950 9300 8950
Wire Wire Line
	9550 8850 9250 8850
Wire Wire Line
	9550 8750 9200 8750
Wire Wire Line
	9550 8650 9150 8650
Wire Wire Line
	9550 8550 9100 8550
$Comp
L power:GNDREF #PWR0110
U 1 1 60E24725
P 9550 9350
F 0 "#PWR0110" H 9550 9100 50  0001 C CNN
F 1 "GNDREF" H 9555 9177 50  0000 C CNN
F 2 "" H 9550 9350 50  0001 C CNN
F 3 "" H 9550 9350 50  0001 C CNN
	1    9550 9350
	1    0    0    -1  
$EndComp
Wire Wire Line
	10100 11900 10700 11900
Wire Wire Line
	9100 8550 9100 11600
Wire Wire Line
	9150 11200 9500 11200
Wire Wire Line
	9150 8650 9150 11200
Wire Wire Line
	9200 8750 9200 10800
Wire Wire Line
	9250 8850 9250 9700
$Comp
L Connector:SCART-F J4
U 1 1 60E24735
P 10100 11200
F 0 "J4" H 10100 12620 50  0000 C CNN
F 1 "SCART-INPUT-4" H 10100 12529 50  0000 C CNN
F 2 "SamacSys_Parts:KSCARTX024" H 10100 11250 50  0001 C CNN
F 3 " ~" H 10100 11250 50  0001 C CNN
	1    10100 11200
	1    0    0    -1  
$EndComp
Wire Wire Line
	10700 9700 9250 9700
Wire Wire Line
	10750 9650 9300 9650
Wire Wire Line
	10750 10700 10750 9650
Wire Wire Line
	10700 10700 10750 10700
Wire Wire Line
	10700 10300 10700 9700
Wire Wire Line
	9500 10800 9200 10800
Wire Wire Line
	9500 11600 9100 11600
Wire Wire Line
	10100 11800 10100 11900
Connection ~ 10100 11800
Wire Wire Line
	9500 11800 10100 11800
Wire Wire Line
	10100 11400 10100 11800
Connection ~ 10100 11400
Wire Wire Line
	9500 11400 10100 11400
Wire Wire Line
	10100 11000 10100 11400
Connection ~ 10100 11000
Wire Wire Line
	9500 11000 10100 11000
Wire Wire Line
	10100 10600 10100 11000
Connection ~ 10100 10600
Wire Wire Line
	9500 10600 10100 10600
Wire Wire Line
	10100 10500 10100 10600
Connection ~ 10100 10500
Wire Wire Line
	10700 10500 10100 10500
Wire Wire Line
	10100 10200 10100 10500
Wire Wire Line
	9500 10200 10100 10200
Wire Wire Line
	9300 8950 9300 9650
Wire Wire Line
	9350 9050 9350 9600
Wire Wire Line
	9350 9600 10800 9600
Wire Wire Line
	10800 9600 10800 11700
Wire Wire Line
	10800 11700 10700 11700
Wire Wire Line
	9350 9050 9550 9050
Wire Wire Line
	9400 9150 9400 9550
Wire Wire Line
	9400 9550 10850 9550
Wire Wire Line
	10850 9550 10850 12100
Wire Wire Line
	10850 12100 10700 12100
Wire Wire Line
	9400 9150 9550 9150
Wire Wire Line
	10700 11500 9750 11500
Wire Wire Line
	9750 11500 9750 11750
Wire Wire Line
	9750 11750 9050 11750
Wire Wire Line
	9050 11750 9050 8250
Wire Wire Line
	9500 11800 9000 11800
Connection ~ 9500 11800
$Comp
L Relay:EC2-5NU K4
U 1 1 60E2476E
P 9850 7650
F 0 "K4" H 9220 7604 50  0000 R CNN
F 1 "EC2-5NU" H 9220 7695 50  0000 R CNN
F 2 "Relay_THT:Relay_DPDT_Kemet_EC2" H 9850 7650 50  0001 C CNN
F 3 "https://content.kemet.com/datasheets/KEM_R7002_EC2_EE2.pdf" H 9850 7650 50  0001 C CNN
	1    9850 7650
	-1   0    0    1   
$EndComp
Wire Wire Line
	9000 8200 9350 8200
Wire Wire Line
	9000 8200 9000 11800
Wire Wire Line
	9350 8200 9350 7950
Wire Wire Line
	9050 8250 9750 8250
Wire Wire Line
	9750 8250 9750 7950
Wire Wire Line
	9850 7350 9850 6550
Wire Wire Line
	9450 6700 9450 7350
Text GLabel 10250 7950 3    50   Input ~ 0
RELAIS4
$Comp
L SamacSys_Parts:CBT3245APW,118 IC4
U 1 1 60E2478C
P 9550 8450
F 0 "IC4" H 9778 8496 50  0000 L CNN
F 1 "CBT3245APW" H 9778 8405 50  0000 L CNN
F 2 "SOP65P640X110-20N" H 10500 8550 50  0001 L CNN
F 3 "https://assets.nexperia.com/documents/data-sheet/CBT3245A.pdf" H 10500 8450 50  0001 L CNN
F 4 "CBT3245A - Octal bus switch@en-us" H 10500 8350 50  0001 L CNN "Description"
F 5 "1.1" H 10500 8250 50  0001 L CNN "Height"
F 6 "Nexperia" H 10500 8150 50  0001 L CNN "Manufacturer_Name"
F 7 "CBT3245APW,118" H 10500 8050 50  0001 L CNN "Manufacturer_Part_Number"
F 8 "771-CBT3245APW118" H 10500 7950 50  0001 L CNN "Mouser Part Number"
F 9 "https://www.mouser.com/Search/Refine.aspx?Keyword=771-CBT3245APW118" H 10500 7850 50  0001 L CNN "Mouser Price/Stock"
F 10 "CBT3245APW,118" H 10500 7750 50  0001 L CNN "Arrow Part Number"
F 11 "https://www.arrow.com/en/products/cbt3245apw118/nexperia" H 10500 7650 50  0001 L CNN "Arrow Price/Stock"
	1    9550 8450
	1    0    0    -1  
$EndComp
Text GLabel 10750 8400 1    50   Input ~ 0
SCART4
Wire Wire Line
	11800 8950 11550 8950
Wire Wire Line
	11800 8850 11500 8850
Wire Wire Line
	11800 8750 11450 8750
Wire Wire Line
	11800 8650 11400 8650
Wire Wire Line
	11800 8550 11350 8550
$Comp
L power:GNDREF #PWR0112
U 1 1 60E505AD
P 11800 9350
F 0 "#PWR0112" H 11800 9100 50  0001 C CNN
F 1 "GNDREF" H 11805 9177 50  0000 C CNN
F 2 "" H 11800 9350 50  0001 C CNN
F 3 "" H 11800 9350 50  0001 C CNN
	1    11800 9350
	1    0    0    -1  
$EndComp
Wire Wire Line
	12350 11900 12950 11900
Wire Wire Line
	11350 8550 11350 11600
Wire Wire Line
	11400 11200 11750 11200
Wire Wire Line
	11400 8650 11400 11200
Wire Wire Line
	11450 8750 11450 10800
Wire Wire Line
	11500 8850 11500 9700
Wire Wire Line
	11750 10800 11450 10800
Wire Wire Line
	11750 11600 11350 11600
Wire Wire Line
	12350 11800 12350 11900
Connection ~ 12350 11800
Wire Wire Line
	12350 11400 12350 11800
Connection ~ 12350 11400
Wire Wire Line
	11750 11400 12350 11400
Wire Wire Line
	12350 11000 12350 11400
Connection ~ 12350 11000
Wire Wire Line
	11750 11000 12350 11000
Wire Wire Line
	12350 10600 12350 11000
Connection ~ 12350 10600
Wire Wire Line
	11750 10600 12350 10600
Wire Wire Line
	11750 10200 12350 10200
Wire Wire Line
	11550 8950 11550 9650
Wire Wire Line
	11600 9050 11600 9600
Wire Wire Line
	13050 11700 12950 11700
Wire Wire Line
	11600 9050 11800 9050
Wire Wire Line
	13100 12100 12950 12100
Wire Wire Line
	11650 9150 11800 9150
Wire Wire Line
	12950 11500 12000 11500
Wire Wire Line
	12000 11500 12000 11750
Wire Wire Line
	11300 11750 11300 8250
$Comp
L Relay:EC2-5NU K5
U 1 1 60E505F6
P 12100 7650
F 0 "K5" H 11470 7604 50  0000 R CNN
F 1 "EC2-5NU" H 11470 7695 50  0000 R CNN
F 2 "Relay_THT:Relay_DPDT_Kemet_EC2" H 12100 7650 50  0001 C CNN
F 3 "https://content.kemet.com/datasheets/KEM_R7002_EC2_EE2.pdf" H 12100 7650 50  0001 C CNN
	1    12100 7650
	-1   0    0    1   
$EndComp
Wire Wire Line
	11250 8200 11600 8200
Wire Wire Line
	11250 8200 11250 11800
Wire Wire Line
	11600 8200 11600 7950
Wire Wire Line
	11300 8250 12000 8250
Wire Wire Line
	12000 8250 12000 7950
Wire Wire Line
	12100 7350 12100 6550
Wire Wire Line
	11700 6700 11700 7350
Text GLabel 12500 7950 3    50   Input ~ 0
RELAIS5
Text GLabel 13000 8400 1    50   Input ~ 0
SCART5
Wire Wire Line
	14050 8950 13800 8950
Wire Wire Line
	14050 8850 13750 8850
Wire Wire Line
	14050 8750 13700 8750
Wire Wire Line
	14050 8650 13650 8650
Wire Wire Line
	14050 8550 13600 8550
$Comp
L power:GNDREF #PWR0114
U 1 1 60E50620
P 14050 9350
F 0 "#PWR0114" H 14050 9100 50  0001 C CNN
F 1 "GNDREF" H 14055 9177 50  0000 C CNN
F 2 "" H 14050 9350 50  0001 C CNN
F 3 "" H 14050 9350 50  0001 C CNN
	1    14050 9350
	1    0    0    -1  
$EndComp
Wire Wire Line
	14600 11900 15200 11900
Wire Wire Line
	13600 8550 13600 11600
Wire Wire Line
	13650 11200 14000 11200
Wire Wire Line
	13650 8650 13650 11200
Wire Wire Line
	13700 8750 13700 10800
Wire Wire Line
	13750 8850 13750 9700
$Comp
L Connector:SCART-F J6
U 1 1 60E50630
P 14600 11200
F 0 "J6" H 14600 12620 50  0000 C CNN
F 1 "SCART-INPUT-6" H 14600 12529 50  0000 C CNN
F 2 "SamacSys_Parts:KSCARTX024" H 14600 11250 50  0001 C CNN
F 3 " ~" H 14600 11250 50  0001 C CNN
	1    14600 11200
	1    0    0    -1  
$EndComp
Wire Wire Line
	15200 9700 13750 9700
Wire Wire Line
	15250 9650 13800 9650
Wire Wire Line
	15250 10700 15250 9650
Wire Wire Line
	15200 10700 15250 10700
Wire Wire Line
	15200 10300 15200 9700
Wire Wire Line
	14000 10800 13700 10800
Wire Wire Line
	14000 11600 13600 11600
Wire Wire Line
	14600 11800 14600 11900
Connection ~ 14600 11800
Wire Wire Line
	14000 11800 14600 11800
Wire Wire Line
	14600 11400 14600 11800
Connection ~ 14600 11400
Wire Wire Line
	14000 11400 14600 11400
Wire Wire Line
	14600 11000 14600 11400
Connection ~ 14600 11000
Wire Wire Line
	14000 11000 14600 11000
Wire Wire Line
	14600 10600 14600 11000
Connection ~ 14600 10600
Wire Wire Line
	14000 10600 14600 10600
Wire Wire Line
	14600 10500 14600 10600
Connection ~ 14600 10500
Wire Wire Line
	15200 10500 14600 10500
Wire Wire Line
	14600 10200 14600 10500
Wire Wire Line
	14000 10200 14600 10200
Wire Wire Line
	13800 8950 13800 9650
Wire Wire Line
	13850 9050 13850 9600
Wire Wire Line
	13850 9600 15300 9600
Wire Wire Line
	15300 9600 15300 11700
Wire Wire Line
	15300 11700 15200 11700
Wire Wire Line
	13850 9050 14050 9050
Wire Wire Line
	13900 9150 13900 9550
Wire Wire Line
	13900 9550 15350 9550
Wire Wire Line
	15350 9550 15350 12100
Wire Wire Line
	15350 12100 15200 12100
Wire Wire Line
	13900 9150 14050 9150
Wire Wire Line
	15200 11500 14250 11500
Wire Wire Line
	14250 11500 14250 11750
Wire Wire Line
	14250 11750 13550 11750
Wire Wire Line
	14000 11800 13500 11800
Connection ~ 14000 11800
$Comp
L Relay:EC2-5NU K6
U 1 1 60E50669
P 14350 7650
F 0 "K6" H 13720 7604 50  0000 R CNN
F 1 "EC2-5NU" H 13720 7695 50  0000 R CNN
F 2 "Relay_THT:Relay_DPDT_Kemet_EC2" H 14350 7650 50  0001 C CNN
F 3 "https://content.kemet.com/datasheets/KEM_R7002_EC2_EE2.pdf" H 14350 7650 50  0001 C CNN
	1    14350 7650
	-1   0    0    1   
$EndComp
Wire Wire Line
	13500 8200 13850 8200
Wire Wire Line
	13500 8200 13500 11800
Wire Wire Line
	13850 8200 13850 7950
Wire Wire Line
	13550 8250 14250 8250
Wire Wire Line
	14250 8250 14250 7950
Wire Wire Line
	14350 7350 14350 6550
Wire Wire Line
	13950 6700 13950 7350
$Comp
L SamacSys_Parts:CBT3245APW,118 IC6
U 1 1 60E50687
P 14050 8450
F 0 "IC6" H 14278 8496 50  0000 L CNN
F 1 "CBT3245APW" H 14278 8405 50  0000 L CNN
F 2 "SOP65P640X110-20N" H 15000 8550 50  0001 L CNN
F 3 "https://assets.nexperia.com/documents/data-sheet/CBT3245A.pdf" H 15000 8450 50  0001 L CNN
F 4 "CBT3245A - Octal bus switch@en-us" H 15000 8350 50  0001 L CNN "Description"
F 5 "1.1" H 15000 8250 50  0001 L CNN "Height"
F 6 "Nexperia" H 15000 8150 50  0001 L CNN "Manufacturer_Name"
F 7 "CBT3245APW,118" H 15000 8050 50  0001 L CNN "Manufacturer_Part_Number"
F 8 "771-CBT3245APW118" H 15000 7950 50  0001 L CNN "Mouser Part Number"
F 9 "https://www.mouser.com/Search/Refine.aspx?Keyword=771-CBT3245APW118" H 15000 7850 50  0001 L CNN "Mouser Price/Stock"
F 10 "CBT3245APW,118" H 15000 7750 50  0001 L CNN "Arrow Part Number"
F 11 "https://www.arrow.com/en/products/cbt3245apw118/nexperia" H 15000 7650 50  0001 L CNN "Arrow Price/Stock"
	1    14050 8450
	1    0    0    -1  
$EndComp
Text GLabel 15250 8400 1    50   Input ~ 0
SCART6
Wire Wire Line
	21150 6500 21150 6550
Wire Wire Line
	21150 6550 21250 6550
Wire Wire Line
	21150 6400 21150 6350
Wire Wire Line
	21150 6350 21250 6350
Wire Wire Line
	21100 6350 21100 6250
Wire Wire Line
	21100 6250 21250 6250
Wire Wire Line
	21050 6300 21050 6150
Wire Wire Line
	21050 6150 21250 6150
Wire Wire Line
	21000 6250 21000 6050
Wire Wire Line
	21000 6050 21250 6050
Wire Wire Line
	20950 6200 20950 5950
Wire Wire Line
	20950 5950 21250 5950
Wire Wire Line
	21100 6550 21100 6650
Wire Wire Line
	21100 6650 21250 6650
Wire Wire Line
	21050 6600 21050 6750
Wire Wire Line
	21050 6750 21250 6750
Wire Wire Line
	21000 6650 21000 6850
Wire Wire Line
	21000 6850 21250 6850
Wire Wire Line
	21250 6950 20950 6950
Wire Wire Line
	20950 6950 20950 6700
Wire Wire Line
	16300 8950 16050 8950
Wire Wire Line
	16300 8850 16000 8850
Wire Wire Line
	16300 8750 15950 8750
Wire Wire Line
	16300 8650 15900 8650
Wire Wire Line
	16300 8550 15850 8550
$Comp
L power:GNDREF #PWR0116
U 1 1 612FDA39
P 16300 9350
F 0 "#PWR0116" H 16300 9100 50  0001 C CNN
F 1 "GNDREF" H 16305 9177 50  0000 C CNN
F 2 "" H 16300 9350 50  0001 C CNN
F 3 "" H 16300 9350 50  0001 C CNN
	1    16300 9350
	1    0    0    -1  
$EndComp
Wire Wire Line
	16850 11900 17450 11900
Wire Wire Line
	15850 8550 15850 11600
Wire Wire Line
	15900 11200 16250 11200
Wire Wire Line
	15900 8650 15900 11200
Wire Wire Line
	15950 8750 15950 10800
Wire Wire Line
	16000 8850 16000 9700
$Comp
L Connector:SCART-F J7
U 1 1 612FDA49
P 16850 11200
F 0 "J7" H 16850 12620 50  0000 C CNN
F 1 "SCART-INPUT-7" H 16850 12529 50  0000 C CNN
F 2 "SamacSys_Parts:KSCARTX024" H 16850 11250 50  0001 C CNN
F 3 " ~" H 16850 11250 50  0001 C CNN
	1    16850 11200
	1    0    0    -1  
$EndComp
Wire Wire Line
	17450 9700 16000 9700
Wire Wire Line
	17500 9650 16050 9650
Wire Wire Line
	17500 10700 17500 9650
Wire Wire Line
	17450 10700 17500 10700
Wire Wire Line
	17450 10300 17450 9700
Wire Wire Line
	16250 10800 15950 10800
Wire Wire Line
	16250 11600 15850 11600
Wire Wire Line
	16850 11800 16850 11900
Connection ~ 16850 11800
Wire Wire Line
	16250 11800 16850 11800
Wire Wire Line
	16850 11400 16850 11800
Connection ~ 16850 11400
Wire Wire Line
	16250 11400 16850 11400
Wire Wire Line
	16850 11000 16850 11400
Connection ~ 16850 11000
Wire Wire Line
	16250 11000 16850 11000
Wire Wire Line
	16850 10600 16850 11000
Connection ~ 16850 10600
Wire Wire Line
	16250 10600 16850 10600
Wire Wire Line
	16850 10500 16850 10600
Connection ~ 16850 10500
Wire Wire Line
	17450 10500 16850 10500
Wire Wire Line
	16850 10200 16850 10500
Wire Wire Line
	16250 10200 16850 10200
Wire Wire Line
	16050 8950 16050 9650
Wire Wire Line
	16100 9050 16100 9600
Wire Wire Line
	16100 9600 17550 9600
Wire Wire Line
	17550 9600 17550 11700
Wire Wire Line
	17550 11700 17450 11700
Wire Wire Line
	16100 9050 16300 9050
Wire Wire Line
	16150 9150 16150 9550
Wire Wire Line
	16150 9550 17600 9550
Wire Wire Line
	17600 9550 17600 12100
Wire Wire Line
	17600 12100 17450 12100
Wire Wire Line
	16150 9150 16300 9150
Wire Wire Line
	17450 11500 16500 11500
Wire Wire Line
	16500 11500 16500 11750
Wire Wire Line
	16500 11750 15800 11750
Wire Wire Line
	15800 11750 15800 8250
Wire Wire Line
	16250 11800 15750 11800
Connection ~ 16250 11800
$Comp
L Relay:EC2-5NU K7
U 1 1 612FDA82
P 16600 7650
F 0 "K7" H 15970 7604 50  0000 R CNN
F 1 "EC2-5NU" H 15970 7695 50  0000 R CNN
F 2 "Relay_THT:Relay_DPDT_Kemet_EC2" H 16600 7650 50  0001 C CNN
F 3 "https://content.kemet.com/datasheets/KEM_R7002_EC2_EE2.pdf" H 16600 7650 50  0001 C CNN
	1    16600 7650
	-1   0    0    1   
$EndComp
Wire Wire Line
	15750 8200 16100 8200
Wire Wire Line
	15750 8200 15750 11800
Wire Wire Line
	16100 8200 16100 7950
Wire Wire Line
	15800 8250 16500 8250
Wire Wire Line
	16500 8250 16500 7950
Wire Wire Line
	16600 7350 16600 6550
Wire Wire Line
	16200 6700 16200 7350
$Comp
L SamacSys_Parts:CBT3245APW,118 IC7
U 1 1 612FDAA0
P 16300 8450
F 0 "IC7" H 16528 8496 50  0000 L CNN
F 1 "CBT3245APW" H 16528 8405 50  0000 L CNN
F 2 "SOP65P640X110-20N" H 17250 8550 50  0001 L CNN
F 3 "https://assets.nexperia.com/documents/data-sheet/CBT3245A.pdf" H 17250 8450 50  0001 L CNN
F 4 "CBT3245A - Octal bus switch@en-us" H 17250 8350 50  0001 L CNN "Description"
F 5 "1.1" H 17250 8250 50  0001 L CNN "Height"
F 6 "Nexperia" H 17250 8150 50  0001 L CNN "Manufacturer_Name"
F 7 "CBT3245APW,118" H 17250 8050 50  0001 L CNN "Manufacturer_Part_Number"
F 8 "771-CBT3245APW118" H 17250 7950 50  0001 L CNN "Mouser Part Number"
F 9 "https://www.mouser.com/Search/Refine.aspx?Keyword=771-CBT3245APW118" H 17250 7850 50  0001 L CNN "Mouser Price/Stock"
F 10 "CBT3245APW,118" H 17250 7750 50  0001 L CNN "Arrow Part Number"
F 11 "https://www.arrow.com/en/products/cbt3245apw118/nexperia" H 17250 7650 50  0001 L CNN "Arrow Price/Stock"
	1    16300 8450
	1    0    0    -1  
$EndComp
Text GLabel 17500 8400 1    50   Input ~ 0
SCART7
Wire Wire Line
	18550 8950 18300 8950
Wire Wire Line
	18550 8850 18250 8850
Wire Wire Line
	18550 8750 18200 8750
Wire Wire Line
	18550 8650 18150 8650
Wire Wire Line
	18550 8550 18100 8550
$Comp
L power:GNDREF #PWR0118
U 1 1 612FDAAC
P 18550 9350
F 0 "#PWR0118" H 18550 9100 50  0001 C CNN
F 1 "GNDREF" H 18555 9177 50  0000 C CNN
F 2 "" H 18550 9350 50  0001 C CNN
F 3 "" H 18550 9350 50  0001 C CNN
	1    18550 9350
	1    0    0    -1  
$EndComp
Wire Wire Line
	19100 11900 19700 11900
Wire Wire Line
	18100 8550 18100 11600
Wire Wire Line
	18150 11200 18500 11200
Wire Wire Line
	18150 8650 18150 11200
Wire Wire Line
	18200 8750 18200 10800
Wire Wire Line
	18250 8850 18250 9700
$Comp
L Connector:SCART-F J8
U 1 1 612FDABC
P 19100 11200
F 0 "J8" H 19100 12620 50  0000 C CNN
F 1 "SCART-INPUT-8" H 19100 12529 50  0000 C CNN
F 2 "SamacSys_Parts:KSCARTX024" H 19100 11250 50  0001 C CNN
F 3 " ~" H 19100 11250 50  0001 C CNN
	1    19100 11200
	1    0    0    -1  
$EndComp
Wire Wire Line
	19700 9700 18250 9700
Wire Wire Line
	19750 9650 18300 9650
Wire Wire Line
	19750 10700 19750 9650
Wire Wire Line
	19700 10700 19750 10700
Wire Wire Line
	19700 10300 19700 9700
Wire Wire Line
	18500 10800 18200 10800
Wire Wire Line
	18500 11600 18100 11600
Wire Wire Line
	19100 11800 19100 11900
Connection ~ 19100 11800
Wire Wire Line
	18500 11800 19100 11800
Wire Wire Line
	19100 11400 19100 11800
Connection ~ 19100 11400
Wire Wire Line
	18500 11400 19100 11400
Wire Wire Line
	19100 11000 19100 11400
Connection ~ 19100 11000
Wire Wire Line
	18500 11000 19100 11000
Wire Wire Line
	19100 10600 19100 11000
Connection ~ 19100 10600
Wire Wire Line
	18500 10600 19100 10600
Wire Wire Line
	19100 10500 19100 10600
Connection ~ 19100 10500
Wire Wire Line
	19700 10500 19100 10500
Wire Wire Line
	19100 10200 19100 10500
Wire Wire Line
	18500 10200 19100 10200
Wire Wire Line
	18300 8950 18300 9650
Wire Wire Line
	18350 9050 18350 9600
Wire Wire Line
	18350 9600 19800 9600
Wire Wire Line
	19800 9600 19800 11700
Wire Wire Line
	19800 11700 19700 11700
Wire Wire Line
	18350 9050 18550 9050
Wire Wire Line
	18400 9150 18400 9550
Wire Wire Line
	18400 9550 19850 9550
Wire Wire Line
	19850 9550 19850 12100
Wire Wire Line
	19850 12100 19700 12100
Wire Wire Line
	18400 9150 18550 9150
Wire Wire Line
	19700 11500 18750 11500
Wire Wire Line
	18750 11500 18750 11750
Wire Wire Line
	18750 11750 18050 11750
Wire Wire Line
	18050 11750 18050 8250
Wire Wire Line
	18500 11800 18000 11800
Connection ~ 18500 11800
$Comp
L Relay:EC2-5NU K8
U 1 1 612FDAF5
P 18850 7650
F 0 "K8" H 18220 7604 50  0000 R CNN
F 1 "EC2-5NU" H 18220 7695 50  0000 R CNN
F 2 "Relay_THT:Relay_DPDT_Kemet_EC2" H 18850 7650 50  0001 C CNN
F 3 "https://content.kemet.com/datasheets/KEM_R7002_EC2_EE2.pdf" H 18850 7650 50  0001 C CNN
	1    18850 7650
	-1   0    0    1   
$EndComp
Wire Wire Line
	18000 8200 18350 8200
Wire Wire Line
	18000 8200 18000 11800
Wire Wire Line
	18350 8200 18350 7950
Wire Wire Line
	18050 8250 18750 8250
Wire Wire Line
	18750 8250 18750 7950
Wire Wire Line
	18850 7350 18850 6550
Wire Wire Line
	18450 6700 18450 7350
$Comp
L SamacSys_Parts:CBT3245APW,118 IC8
U 1 1 612FDB13
P 18550 8450
F 0 "IC8" H 18778 8496 50  0000 L CNN
F 1 "CBT3245APW" H 18778 8405 50  0000 L CNN
F 2 "SOP65P640X110-20N" H 19500 8550 50  0001 L CNN
F 3 "https://assets.nexperia.com/documents/data-sheet/CBT3245A.pdf" H 19500 8450 50  0001 L CNN
F 4 "CBT3245A - Octal bus switch@en-us" H 19500 8350 50  0001 L CNN "Description"
F 5 "1.1" H 19500 8250 50  0001 L CNN "Height"
F 6 "Nexperia" H 19500 8150 50  0001 L CNN "Manufacturer_Name"
F 7 "CBT3245APW,118" H 19500 8050 50  0001 L CNN "Manufacturer_Part_Number"
F 8 "771-CBT3245APW118" H 19500 7950 50  0001 L CNN "Mouser Part Number"
F 9 "https://www.mouser.com/Search/Refine.aspx?Keyword=771-CBT3245APW118" H 19500 7850 50  0001 L CNN "Mouser Price/Stock"
F 10 "CBT3245APW,118" H 19500 7750 50  0001 L CNN "Arrow Part Number"
F 11 "https://www.arrow.com/en/products/cbt3245apw118/nexperia" H 19500 7650 50  0001 L CNN "Arrow Price/Stock"
	1    18550 8450
	1    0    0    -1  
$EndComp
Text GLabel 19750 8400 1    50   Input ~ 0
SCART8
Connection ~ 7350 5600
Wire Wire Line
	7350 5600 7350 5550
Text GLabel 10250 4100 2    50   Input ~ 0
+5V
$Comp
L power:GNDREF #PWR0120
U 1 1 61594A44
P 10250 4200
F 0 "#PWR0120" H 10250 3950 50  0001 C CNN
F 1 "GNDREF" H 10255 4027 50  0000 C CNN
F 2 "" H 10250 4200 50  0001 C CNN
F 3 "" H 10250 4200 50  0001 C CNN
	1    10250 4200
	1    0    0    -1  
$EndComp
$Comp
L Switch:SW_SPDT SW1
U 1 1 61B7F703
P 7600 4650
F 0 "SW1" V 7554 4798 50  0000 L CNN
F 1 "SW_Power" V 7645 4798 50  0000 L CNN
F 2 "Connector_PinSocket_2.54mm:PinSocket_1x03_P2.54mm_Vertical" H 7600 4650 50  0001 C CNN
F 3 "~" H 7600 4650 50  0001 C CNN
	1    7600 4650
	0    1    1    0   
$EndComp
Wire Wire Line
	7600 4350 7600 4450
Wire Wire Line
	7500 4850 7500 5050
$Comp
L Device:LED D-POWER1
U 1 1 61DC0B62
P 7200 4600
F 0 "D-POWER1" V 7147 4680 50  0000 L CNN
F 1 "LED" V 7238 4680 50  0000 L CNN
F 2 "LED_THT:LED_D5.0mm" H 7200 4600 50  0001 C CNN
F 3 "~" H 7200 4600 50  0001 C CNN
	1    7200 4600
	0    1    1    0   
$EndComp
$Comp
L Device:R R4
U 1 1 61EE16F6
P 7200 4900
F 0 "R4" H 7270 4946 50  0000 L CNN
F 1 "1K" H 7270 4855 50  0000 L CNN
F 2 "Resistor_THT:R_Axial_DIN0207_L6.3mm_D2.5mm_P10.16mm_Horizontal" V 7130 4900 50  0001 C CNN
F 3 "~" H 7200 4900 50  0001 C CNN
	1    7200 4900
	1    0    0    -1  
$EndComp
Wire Wire Line
	7200 5050 7350 5050
Wire Wire Line
	7400 4350 7200 4350
Wire Wire Line
	7200 4450 7200 4350
Connection ~ 7200 4350
Wire Wire Line
	7200 4350 6950 4350
$Comp
L Device:LED D1
U 1 1 62068230
P 3300 12650
F 0 "D1" H 3293 12395 50  0000 C CNN
F 1 "LED" H 3293 12486 50  0000 C CNN
F 2 "LED_THT:LED_D5.0mm" H 3300 12650 50  0001 C CNN
F 3 "~" H 3300 12650 50  0001 C CNN
	1    3300 12650
	-1   0    0    1   
$EndComp
Wire Wire Line
	7350 5100 7350 5050
Connection ~ 7350 5050
Wire Wire Line
	7350 5050 7500 5050
Wire Wire Line
	2200 8200 2200 11800
Text GLabel 8400 5800 0    50   Output ~ 0
D2
Text GLabel 8400 5900 0    50   Output ~ 0
D3
Wire Wire Line
	4350 5200 4350 6400
Wire Wire Line
	4300 4800 4300 6350
Wire Wire Line
	2850 4500 2850 6550
Wire Wire Line
	2900 5300 2900 6500
Wire Wire Line
	2950 5700 2950 6450
Wire Wire Line
	3600 5800 3600 6700
Wire Wire Line
	2050 6500 2050 6550
Wire Wire Line
	2050 6400 2050 6350
Wire Wire Line
	2100 6350 2100 6250
Wire Wire Line
	2150 6300 2150 6150
Wire Wire Line
	2200 6250 2200 6050
Wire Wire Line
	2250 6200 2250 5950
$Comp
L power:GNDREF #PWR0105
U 1 1 61754F90
P 2000 7100
F 0 "#PWR0105" H 2000 6850 50  0001 C CNN
F 1 "GNDREF" H 2005 6927 50  0000 C CNN
F 2 "" H 2000 7100 50  0001 C CNN
F 3 "" H 2000 7100 50  0001 C CNN
	1    2000 7100
	1    0    0    -1  
$EndComp
Wire Wire Line
	2000 7100 2000 7050
Wire Wire Line
	2000 7050 1950 7050
Wire Wire Line
	6950 4350 6950 4250
Text GLabel 8750 2350 1    50   Input ~ 0
+5V
Connection ~ 11750 11800
Connection ~ 12350 10500
Wire Wire Line
	12350 10200 12350 10500
Wire Wire Line
	12350 10500 12350 10600
Wire Wire Line
	11750 11800 11250 11800
Wire Wire Line
	11750 11800 12350 11800
Wire Wire Line
	13550 11750 13550 8250
Wire Wire Line
	12000 11750 11300 11750
Wire Wire Line
	11650 9150 11650 9550
$Comp
L SamacSys_Parts:CBT3245APW,118 IC5
U 1 1 60E50614
P 11800 8450
F 0 "IC5" H 12028 8496 50  0000 L CNN
F 1 "CBT3245APW" H 12028 8405 50  0000 L CNN
F 2 "SOP65P640X110-20N" H 12750 8550 50  0001 L CNN
F 3 "https://assets.nexperia.com/documents/data-sheet/CBT3245A.pdf" H 12750 8450 50  0001 L CNN
F 4 "CBT3245A - Octal bus switch@en-us" H 12750 8350 50  0001 L CNN "Description"
F 5 "1.1" H 12750 8250 50  0001 L CNN "Height"
F 6 "Nexperia" H 12750 8150 50  0001 L CNN "Manufacturer_Name"
F 7 "CBT3245APW,118" H 12750 8050 50  0001 L CNN "Manufacturer_Part_Number"
F 8 "771-CBT3245APW118" H 12750 7950 50  0001 L CNN "Mouser Part Number"
F 9 "https://www.mouser.com/Search/Refine.aspx?Keyword=771-CBT3245APW118" H 12750 7850 50  0001 L CNN "Mouser Price/Stock"
F 10 "CBT3245APW,118" H 12750 7750 50  0001 L CNN "Arrow Part Number"
F 11 "https://www.arrow.com/en/products/cbt3245apw118/nexperia" H 12750 7650 50  0001 L CNN "Arrow Price/Stock"
	1    11800 8450
	1    0    0    -1  
$EndComp
Wire Wire Line
	13100 9550 13100 12100
Wire Wire Line
	11650 9550 13100 9550
Wire Wire Line
	13050 9600 13050 11700
Wire Wire Line
	11600 9600 13050 9600
Wire Wire Line
	12950 10500 12350 10500
Wire Wire Line
	12950 10300 12950 9700
Wire Wire Line
	12950 10700 13000 10700
Wire Wire Line
	13000 10700 13000 9650
Wire Wire Line
	13000 9650 11550 9650
Wire Wire Line
	12950 9700 11500 9700
$Comp
L Connector:SCART-F J5
U 1 1 60E505BD
P 12350 11200
F 0 "J5" H 12350 12620 50  0000 C CNN
F 1 "SCART-INPUT-5" H 12350 12529 50  0000 C CNN
F 2 "SamacSys_Parts:KSCARTX024" H 12350 11250 50  0001 C CNN
F 3 " ~" H 12350 11250 50  0001 C CNN
	1    12350 11200
	1    0    0    -1  
$EndComp
Text GLabel 14750 7950 3    50   Input ~ 0
RELAIS6
Text GLabel 17000 7950 3    50   Input ~ 0
RELAIS7
Text GLabel 19250 7950 3    50   Input ~ 0
RELAIS8
Connection ~ 7350 6200
$Comp
L Device:R R-PU1
U 1 1 62B5BC37
P 8850 2500
F 0 "R-PU1" H 8920 2546 50  0000 L CNN
F 1 "100k" H 8920 2455 50  0000 L CNN
F 2 "Resistor_THT:R_Axial_DIN0207_L6.3mm_D2.5mm_P10.16mm_Horizontal" V 8780 2500 50  0001 C CNN
F 3 "~" H 8850 2500 50  0001 C CNN
	1    8850 2500
	1    0    0    -1  
$EndComp
$Comp
L Device:R R-PU2
U 1 1 62B5D007
P 9250 2500
F 0 "R-PU2" H 9320 2546 50  0000 L CNN
F 1 "100k" H 9320 2455 50  0000 L CNN
F 2 "Resistor_THT:R_Axial_DIN0207_L6.3mm_D2.5mm_P10.16mm_Horizontal" V 9180 2500 50  0001 C CNN
F 3 "~" H 9250 2500 50  0001 C CNN
	1    9250 2500
	1    0    0    -1  
$EndComp
$Comp
L Device:R R-PU3
U 1 1 62B5D38F
P 9650 2500
F 0 "R-PU3" H 9720 2546 50  0000 L CNN
F 1 "100k" H 9720 2455 50  0000 L CNN
F 2 "Resistor_THT:R_Axial_DIN0207_L6.3mm_D2.5mm_P10.16mm_Horizontal" V 9580 2500 50  0001 C CNN
F 3 "~" H 9650 2500 50  0001 C CNN
	1    9650 2500
	1    0    0    -1  
$EndComp
$Comp
L Device:R R-PU4
U 1 1 62C00D9B
P 10050 2500
F 0 "R-PU4" H 10120 2546 50  0000 L CNN
F 1 "100k" H 10120 2455 50  0000 L CNN
F 2 "Resistor_THT:R_Axial_DIN0207_L6.3mm_D2.5mm_P10.16mm_Horizontal" V 9980 2500 50  0001 C CNN
F 3 "~" H 10050 2500 50  0001 C CNN
	1    10050 2500
	1    0    0    -1  
$EndComp
$Comp
L Device:R R-PU5
U 1 1 62CA4810
P 10450 2500
F 0 "R-PU5" H 10520 2546 50  0000 L CNN
F 1 "100K" H 10520 2455 50  0000 L CNN
F 2 "Resistor_THT:R_Axial_DIN0207_L6.3mm_D2.5mm_P10.16mm_Horizontal" V 10380 2500 50  0001 C CNN
F 3 "~" H 10450 2500 50  0001 C CNN
	1    10450 2500
	1    0    0    -1  
$EndComp
$Comp
L Device:R R-PU6
U 1 1 62D4831D
P 10850 2500
F 0 "R-PU6" H 10920 2546 50  0000 L CNN
F 1 "100k" H 10920 2455 50  0000 L CNN
F 2 "Resistor_THT:R_Axial_DIN0207_L6.3mm_D2.5mm_P10.16mm_Horizontal" V 10780 2500 50  0001 C CNN
F 3 "~" H 10850 2500 50  0001 C CNN
	1    10850 2500
	1    0    0    -1  
$EndComp
$Comp
L Device:R R-PU7
U 1 1 62DEBDE5
P 11250 2500
F 0 "R-PU7" H 11320 2546 50  0000 L CNN
F 1 "100k" H 11320 2455 50  0000 L CNN
F 2 "Resistor_THT:R_Axial_DIN0207_L6.3mm_D2.5mm_P10.16mm_Horizontal" V 11180 2500 50  0001 C CNN
F 3 "~" H 11250 2500 50  0001 C CNN
	1    11250 2500
	1    0    0    -1  
$EndComp
$Comp
L Device:R R-PU8
U 1 1 62E8F8EB
P 11650 2500
F 0 "R-PU8" H 11720 2546 50  0000 L CNN
F 1 "100k" H 11720 2455 50  0000 L CNN
F 2 "Resistor_THT:R_Axial_DIN0207_L6.3mm_D2.5mm_P10.16mm_Horizontal" V 11580 2500 50  0001 C CNN
F 3 "~" H 11650 2500 50  0001 C CNN
	1    11650 2500
	1    0    0    -1  
$EndComp
Wire Wire Line
	8850 2650 8850 2800
Wire Wire Line
	8850 2350 9250 2350
Connection ~ 9250 2350
Wire Wire Line
	9250 2350 9650 2350
Connection ~ 9650 2350
Wire Wire Line
	9650 2350 10050 2350
Connection ~ 10050 2350
Wire Wire Line
	10050 2350 10450 2350
Connection ~ 10450 2350
Wire Wire Line
	10450 2350 10850 2350
Connection ~ 10850 2350
Wire Wire Line
	10850 2350 11250 2350
Connection ~ 11250 2350
Wire Wire Line
	11250 2350 11650 2350
Wire Wire Line
	9250 2650 9250 2900
Wire Wire Line
	9650 2650 9650 3000
Wire Wire Line
	10050 2650 10050 3100
Wire Wire Line
	10450 2650 10450 3200
Wire Wire Line
	10850 2650 10850 3300
Wire Wire Line
	11250 2650 11250 3400
Wire Wire Line
	11650 2650 11650 3500
Wire Wire Line
	8850 2350 8750 2350
Connection ~ 8850 2350
$Comp
L Transistor_BJT:2N3906 Q1
U 1 1 66161CEC
P 13100 2150
F 0 "Q1" V 13428 2150 50  0000 C CNN
F 1 "2N3906" V 13337 2150 50  0000 C CNN
F 2 "Package_TO_SOT_THT:TO-92_HandSolder" H 13300 2075 50  0001 L CIN
F 3 "https://www.onsemi.com/pub/Collateral/2N3906-D.PDF" H 13100 2150 50  0001 L CNN
	1    13100 2150
	0    -1   -1   0   
$EndComp
$Comp
L Device:R R5
U 1 1 6621ADFF
P 13100 2500
F 0 "R5" H 13170 2546 50  0000 L CNN
F 1 "10k" H 13170 2455 50  0000 L CNN
F 2 "Resistor_THT:R_Axial_DIN0207_L6.3mm_D2.5mm_P10.16mm_Horizontal" V 13030 2500 50  0001 C CNN
F 3 "~" H 13100 2500 50  0001 C CNN
	1    13100 2500
	1    0    0    -1  
$EndComp
Wire Wire Line
	12750 2650 12750 3500
Wire Wire Line
	11650 3500 12750 3500
Wire Wire Line
	12650 3400 12650 2650
Wire Wire Line
	11250 3400 12650 3400
Wire Wire Line
	12550 2650 12550 3300
Wire Wire Line
	12450 3200 12450 2650
Wire Wire Line
	12350 2650 12350 3100
Wire Wire Line
	12250 3000 12250 2650
Wire Wire Line
	9650 3000 12250 3000
Wire Wire Line
	12150 2650 12150 2900
Wire Wire Line
	9250 2900 12150 2900
Wire Wire Line
	12050 2800 12050 2650
Wire Wire Line
	8850 2800 12050 2800
$Comp
L Transistor_BJT:2N3906 Q2
U 1 1 66B7C744
P 13600 2150
F 0 "Q2" V 13928 2150 50  0000 C CNN
F 1 "2N3906" V 13837 2150 50  0000 C CNN
F 2 "Package_TO_SOT_THT:TO-92_HandSolder" H 13800 2075 50  0001 L CIN
F 3 "https://www.onsemi.com/pub/Collateral/2N3906-D.PDF" H 13600 2150 50  0001 L CNN
	1    13600 2150
	0    -1   -1   0   
$EndComp
$Comp
L Device:R R6
U 1 1 66B7C74A
P 13600 2500
F 0 "R6" H 13670 2546 50  0000 L CNN
F 1 "10k" H 13670 2455 50  0000 L CNN
F 2 "Resistor_THT:R_Axial_DIN0207_L6.3mm_D2.5mm_P10.16mm_Horizontal" V 13530 2500 50  0001 C CNN
F 3 "~" H 13600 2500 50  0001 C CNN
	1    13600 2500
	1    0    0    -1  
$EndComp
$Comp
L Transistor_BJT:2N3906 Q3
U 1 1 66C35A6B
P 14100 2150
F 0 "Q3" V 14428 2150 50  0000 C CNN
F 1 "2N3906" V 14337 2150 50  0000 C CNN
F 2 "Package_TO_SOT_THT:TO-92_HandSolder" H 14300 2075 50  0001 L CIN
F 3 "https://www.onsemi.com/pub/Collateral/2N3906-D.PDF" H 14100 2150 50  0001 L CNN
	1    14100 2150
	0    -1   -1   0   
$EndComp
$Comp
L Device:R R7
U 1 1 66C35A71
P 14100 2500
F 0 "R7" H 14170 2546 50  0000 L CNN
F 1 "10k" H 14170 2455 50  0000 L CNN
F 2 "Resistor_THT:R_Axial_DIN0207_L6.3mm_D2.5mm_P10.16mm_Horizontal" V 14030 2500 50  0001 C CNN
F 3 "~" H 14100 2500 50  0001 C CNN
	1    14100 2500
	1    0    0    -1  
$EndComp
$Comp
L Transistor_BJT:2N3906 Q4
U 1 1 66CEEDE4
P 14600 2150
F 0 "Q4" V 14928 2150 50  0000 C CNN
F 1 "2N3906" V 14837 2150 50  0000 C CNN
F 2 "Package_TO_SOT_THT:TO-92_HandSolder" H 14800 2075 50  0001 L CIN
F 3 "https://www.onsemi.com/pub/Collateral/2N3906-D.PDF" H 14600 2150 50  0001 L CNN
	1    14600 2150
	0    -1   -1   0   
$EndComp
$Comp
L Device:R R8
U 1 1 66CEEDEA
P 14600 2500
F 0 "R8" H 14670 2546 50  0000 L CNN
F 1 "10k" H 14670 2455 50  0000 L CNN
F 2 "Resistor_THT:R_Axial_DIN0207_L6.3mm_D2.5mm_P10.16mm_Horizontal" V 14530 2500 50  0001 C CNN
F 3 "~" H 14600 2500 50  0001 C CNN
	1    14600 2500
	1    0    0    -1  
$EndComp
$Comp
L Transistor_BJT:2N3906 Q5
U 1 1 66DA8011
P 15100 2150
F 0 "Q5" V 15428 2150 50  0000 C CNN
F 1 "2N3906" V 15337 2150 50  0000 C CNN
F 2 "Package_TO_SOT_THT:TO-92_HandSolder" H 15300 2075 50  0001 L CIN
F 3 "https://www.onsemi.com/pub/Collateral/2N3906-D.PDF" H 15100 2150 50  0001 L CNN
	1    15100 2150
	0    -1   -1   0   
$EndComp
$Comp
L Device:R R9
U 1 1 66DA8017
P 15100 2500
F 0 "R9" H 15170 2546 50  0000 L CNN
F 1 "10k" H 15170 2455 50  0000 L CNN
F 2 "Resistor_THT:R_Axial_DIN0207_L6.3mm_D2.5mm_P10.16mm_Horizontal" V 15030 2500 50  0001 C CNN
F 3 "~" H 15100 2500 50  0001 C CNN
	1    15100 2500
	1    0    0    -1  
$EndComp
$Comp
L Transistor_BJT:2N3906 Q6
U 1 1 66E61244
P 15600 2150
F 0 "Q6" V 15928 2150 50  0000 C CNN
F 1 "2N3906" V 15837 2150 50  0000 C CNN
F 2 "Package_TO_SOT_THT:TO-92_HandSolder" H 15800 2075 50  0001 L CIN
F 3 "https://www.onsemi.com/pub/Collateral/2N3906-D.PDF" H 15600 2150 50  0001 L CNN
	1    15600 2150
	0    -1   -1   0   
$EndComp
$Comp
L Device:R R10
U 1 1 66E6124A
P 15600 2500
F 0 "R10" H 15670 2546 50  0000 L CNN
F 1 "10k" H 15670 2455 50  0000 L CNN
F 2 "Resistor_THT:R_Axial_DIN0207_L6.3mm_D2.5mm_P10.16mm_Horizontal" V 15530 2500 50  0001 C CNN
F 3 "~" H 15600 2500 50  0001 C CNN
	1    15600 2500
	1    0    0    -1  
$EndComp
$Comp
L Transistor_BJT:2N3906 Q7
U 1 1 66F1B481
P 16100 2150
F 0 "Q7" V 16428 2150 50  0000 C CNN
F 1 "2N3906" V 16337 2150 50  0000 C CNN
F 2 "Package_TO_SOT_THT:TO-92_HandSolder" H 16300 2075 50  0001 L CIN
F 3 "https://www.onsemi.com/pub/Collateral/2N3906-D.PDF" H 16100 2150 50  0001 L CNN
	1    16100 2150
	0    -1   -1   0   
$EndComp
$Comp
L Device:R R11
U 1 1 66F1B487
P 16100 2500
F 0 "R11" H 16170 2546 50  0000 L CNN
F 1 "10k" H 16170 2455 50  0000 L CNN
F 2 "Resistor_THT:R_Axial_DIN0207_L6.3mm_D2.5mm_P10.16mm_Horizontal" V 16030 2500 50  0001 C CNN
F 3 "~" H 16100 2500 50  0001 C CNN
	1    16100 2500
	1    0    0    -1  
$EndComp
$Comp
L Transistor_BJT:2N3906 Q8
U 1 1 6714A48C
P 16600 2150
F 0 "Q8" V 16928 2150 50  0000 C CNN
F 1 "2N3906" V 16837 2150 50  0000 C CNN
F 2 "Package_TO_SOT_THT:TO-92_HandSolder" H 16800 2075 50  0001 L CIN
F 3 "https://www.onsemi.com/pub/Collateral/2N3906-D.PDF" H 16600 2150 50  0001 L CNN
	1    16600 2150
	0    -1   -1   0   
$EndComp
$Comp
L Device:R R12
U 1 1 6714A492
P 16600 2500
F 0 "R12" H 16670 2546 50  0000 L CNN
F 1 "10k" H 16670 2455 50  0000 L CNN
F 2 "Resistor_THT:R_Axial_DIN0207_L6.3mm_D2.5mm_P10.16mm_Horizontal" V 16530 2500 50  0001 C CNN
F 3 "~" H 16600 2500 50  0001 C CNN
	1    16600 2500
	1    0    0    -1  
$EndComp
Wire Wire Line
	13300 1550 13300 950 
Wire Wire Line
	13300 950  13800 950 
Wire Wire Line
	16800 950  16800 1550
Wire Wire Line
	16300 1550 16300 950 
Connection ~ 16300 950 
Wire Wire Line
	16300 950  16800 950 
Wire Wire Line
	15800 1550 15800 950 
Connection ~ 15800 950 
Wire Wire Line
	15800 950  16300 950 
Wire Wire Line
	15300 1550 15300 950 
Connection ~ 15300 950 
Wire Wire Line
	15300 950  15800 950 
Wire Wire Line
	14800 1550 14800 950 
Connection ~ 14800 950 
Wire Wire Line
	14800 950  15300 950 
Wire Wire Line
	14300 1550 14300 950 
Connection ~ 14300 950 
Wire Wire Line
	14300 950  14800 950 
Wire Wire Line
	13800 1550 13800 950 
Connection ~ 13800 950 
Wire Wire Line
	13800 950  14300 950 
Text GLabel 13300 900  1    50   Input ~ 0
+5V
Wire Wire Line
	13300 900  13300 950 
Connection ~ 13300 950 
Text GLabel 12900 1350 1    50   Input ~ 0
RELAIS1
Text GLabel 13400 1350 1    50   Input ~ 0
RELAIS2
Text GLabel 13900 1350 1    50   Input ~ 0
RELAIS3
Text GLabel 14400 1350 1    50   Input ~ 0
RELAIS4
Text GLabel 14900 1350 1    50   Input ~ 0
RELAIS5
Text GLabel 15400 1350 1    50   Input ~ 0
RELAIS6
Text GLabel 15900 1350 1    50   Input ~ 0
RELAIS7
Text GLabel 16400 1350 1    50   Input ~ 0
RELAIS8
$Comp
L Device:D D9
U 1 1 67EC05EB
P 13150 1550
F 0 "D9" H 13150 1333 50  0000 C CNN
F 1 "D" H 13150 1424 50  0000 C CNN
F 2 "Diode_THT:D_DO-15_P10.16mm_Horizontal" H 13150 1550 50  0001 C CNN
F 3 "~" H 13150 1550 50  0001 C CNN
	1    13150 1550
	-1   0    0    1   
$EndComp
$Comp
L Device:D D10
U 1 1 67F805CA
P 13650 1550
F 0 "D10" H 13650 1333 50  0000 C CNN
F 1 "D" H 13650 1424 50  0000 C CNN
F 2 "Diode_THT:D_DO-15_P10.16mm_Horizontal" H 13650 1550 50  0001 C CNN
F 3 "~" H 13650 1550 50  0001 C CNN
	1    13650 1550
	-1   0    0    1   
$EndComp
$Comp
L Device:D D11
U 1 1 680405AE
P 14150 1550
F 0 "D11" H 14150 1333 50  0000 C CNN
F 1 "D" H 14150 1424 50  0000 C CNN
F 2 "Diode_THT:D_DO-15_P10.16mm_Horizontal" H 14150 1550 50  0001 C CNN
F 3 "~" H 14150 1550 50  0001 C CNN
	1    14150 1550
	-1   0    0    1   
$EndComp
$Comp
L Device:D D12
U 1 1 681C1784
P 14650 1550
F 0 "D12" H 14650 1333 50  0000 C CNN
F 1 "D" H 14650 1424 50  0000 C CNN
F 2 "Diode_THT:D_DO-15_P10.16mm_Horizontal" H 14650 1550 50  0001 C CNN
F 3 "~" H 14650 1550 50  0001 C CNN
	1    14650 1550
	-1   0    0    1   
$EndComp
$Comp
L Device:D D13
U 1 1 68343A05
P 15150 1550
F 0 "D13" H 15150 1333 50  0000 C CNN
F 1 "D" H 15150 1424 50  0000 C CNN
F 2 "Diode_THT:D_DO-15_P10.16mm_Horizontal" H 15150 1550 50  0001 C CNN
F 3 "~" H 15150 1550 50  0001 C CNN
	1    15150 1550
	-1   0    0    1   
$EndComp
$Comp
L Device:D D14
U 1 1 68403BEC
P 15650 1550
F 0 "D14" H 15650 1333 50  0000 C CNN
F 1 "D" H 15650 1424 50  0000 C CNN
F 2 "Diode_THT:D_DO-15_P10.16mm_Horizontal" H 15650 1550 50  0001 C CNN
F 3 "~" H 15650 1550 50  0001 C CNN
	1    15650 1550
	-1   0    0    1   
$EndComp
$Comp
L Device:D D15
U 1 1 684C3DA1
P 16150 1550
F 0 "D15" H 16150 1333 50  0000 C CNN
F 1 "D" H 16150 1424 50  0000 C CNN
F 2 "Diode_THT:D_DO-15_P10.16mm_Horizontal" H 16150 1550 50  0001 C CNN
F 3 "~" H 16150 1550 50  0001 C CNN
	1    16150 1550
	-1   0    0    1   
$EndComp
$Comp
L Device:D D16
U 1 1 68583D03
P 16650 1550
F 0 "D16" H 16650 1333 50  0000 C CNN
F 1 "D" H 16650 1424 50  0000 C CNN
F 2 "Diode_THT:D_DO-15_P10.16mm_Horizontal" H 16650 1550 50  0001 C CNN
F 3 "~" H 16650 1550 50  0001 C CNN
	1    16650 1550
	-1   0    0    1   
$EndComp
Wire Wire Line
	16800 2050 16800 1550
Connection ~ 16800 1550
Wire Wire Line
	16400 2050 16400 1550
Wire Wire Line
	16300 2050 16300 1550
Connection ~ 16300 1550
Wire Wire Line
	15900 2050 15900 1550
Wire Wire Line
	15800 2050 15800 1550
Connection ~ 15800 1550
Wire Wire Line
	15400 2050 15400 1550
Wire Wire Line
	15300 2050 15300 1550
Connection ~ 15300 1550
Wire Wire Line
	14900 2050 14900 1550
Wire Wire Line
	14800 2050 14800 1550
Connection ~ 14800 1550
Wire Wire Line
	14400 2050 14400 1550
Wire Wire Line
	14300 2050 14300 1550
Connection ~ 14300 1550
Wire Wire Line
	13900 2050 13900 1550
Wire Wire Line
	13800 2050 13800 1550
Connection ~ 13800 1550
Wire Wire Line
	13400 2050 13400 1550
Wire Wire Line
	13300 2050 13300 1550
Connection ~ 13300 1550
Wire Wire Line
	12900 2050 12900 1550
Wire Wire Line
	12900 1550 13000 1550
Connection ~ 12900 1550
Wire Wire Line
	12900 1550 12900 1350
Wire Wire Line
	13500 1550 13400 1550
Connection ~ 13400 1550
Wire Wire Line
	13400 1550 13400 1350
Wire Wire Line
	14000 1550 13900 1550
Connection ~ 13900 1550
Wire Wire Line
	13900 1550 13900 1350
Wire Wire Line
	14500 1550 14400 1550
Connection ~ 14400 1550
Wire Wire Line
	14400 1550 14400 1350
Wire Wire Line
	15000 1550 14900 1550
Connection ~ 14900 1550
Wire Wire Line
	14900 1550 14900 1350
Wire Wire Line
	15500 1550 15400 1550
Connection ~ 15400 1550
Wire Wire Line
	15400 1550 15400 1350
Wire Wire Line
	16000 1550 15900 1550
Connection ~ 15900 1550
Wire Wire Line
	15900 1550 15900 1350
Wire Wire Line
	16500 1550 16400 1550
Connection ~ 16400 1550
Wire Wire Line
	16400 1550 16400 1350
Wire Wire Line
	12050 2800 13100 2800
Wire Wire Line
	13100 2800 13100 2650
Connection ~ 12050 2800
Wire Wire Line
	12150 2900 13600 2900
Wire Wire Line
	13600 2900 13600 2650
Connection ~ 12150 2900
Wire Wire Line
	12250 3000 14100 3000
Wire Wire Line
	14100 3000 14100 2650
Connection ~ 12250 3000
Wire Wire Line
	12350 3100 14600 3100
Wire Wire Line
	14600 3100 14600 2650
Connection ~ 12350 3100
Wire Wire Line
	12450 3200 15100 3200
Wire Wire Line
	15100 3200 15100 2650
Connection ~ 12450 3200
Wire Wire Line
	12550 3300 15600 3300
Wire Wire Line
	15600 3300 15600 2650
Connection ~ 12550 3300
Wire Wire Line
	12650 3400 16100 3400
Wire Wire Line
	16100 3400 16100 2650
Connection ~ 12650 3400
Wire Wire Line
	12750 3500 16600 3500
Wire Wire Line
	16600 3500 16600 2650
Connection ~ 12750 3500
$Comp
L power:GNDREF #PWR0107
U 1 1 6A6FE47E
P 3450 7350
F 0 "#PWR0107" H 3450 7100 50  0001 C CNN
F 1 "GNDREF" H 3455 7177 50  0000 C CNN
F 2 "" H 3450 7350 50  0001 C CNN
F 3 "" H 3450 7350 50  0001 C CNN
	1    3450 7350
	-1   0    0    1   
$EndComp
$Comp
L power:GNDREF #PWR0109
U 1 1 6A6FFB3E
P 5750 7350
F 0 "#PWR0109" H 5750 7100 50  0001 C CNN
F 1 "GNDREF" H 5755 7177 50  0000 C CNN
F 2 "" H 5750 7350 50  0001 C CNN
F 3 "" H 5750 7350 50  0001 C CNN
	1    5750 7350
	-1   0    0    1   
$EndComp
$Comp
L power:GNDREF #PWR0111
U 1 1 6A7D52E5
P 8000 7350
F 0 "#PWR0111" H 8000 7100 50  0001 C CNN
F 1 "GNDREF" H 8005 7177 50  0000 C CNN
F 2 "" H 8000 7350 50  0001 C CNN
F 3 "" H 8000 7350 50  0001 C CNN
	1    8000 7350
	-1   0    0    1   
$EndComp
$Comp
L power:GNDREF #PWR0113
U 1 1 6A8AA992
P 10250 7350
F 0 "#PWR0113" H 10250 7100 50  0001 C CNN
F 1 "GNDREF" H 10255 7177 50  0000 C CNN
F 2 "" H 10250 7350 50  0001 C CNN
F 3 "" H 10250 7350 50  0001 C CNN
	1    10250 7350
	-1   0    0    1   
$EndComp
$Comp
L power:GNDREF #PWR0115
U 1 1 6AA555B7
P 12500 7350
F 0 "#PWR0115" H 12500 7100 50  0001 C CNN
F 1 "GNDREF" H 12505 7177 50  0000 C CNN
F 2 "" H 12500 7350 50  0001 C CNN
F 3 "" H 12500 7350 50  0001 C CNN
	1    12500 7350
	-1   0    0    1   
$EndComp
$Comp
L power:GNDREF #PWR0117
U 1 1 6AB2AB62
P 14750 7350
F 0 "#PWR0117" H 14750 7100 50  0001 C CNN
F 1 "GNDREF" H 14755 7177 50  0000 C CNN
F 2 "" H 14750 7350 50  0001 C CNN
F 3 "" H 14750 7350 50  0001 C CNN
	1    14750 7350
	-1   0    0    1   
$EndComp
$Comp
L power:GNDREF #PWR0119
U 1 1 6AC001A4
P 17000 7350
F 0 "#PWR0119" H 17000 7100 50  0001 C CNN
F 1 "GNDREF" H 17005 7177 50  0000 C CNN
F 2 "" H 17000 7350 50  0001 C CNN
F 3 "" H 17000 7350 50  0001 C CNN
	1    17000 7350
	-1   0    0    1   
$EndComp
$Comp
L power:GNDREF #PWR0121
U 1 1 6ACD578F
P 19250 7350
F 0 "#PWR0121" H 19250 7100 50  0001 C CNN
F 1 "GNDREF" H 19255 7177 50  0000 C CNN
F 2 "" H 19250 7350 50  0001 C CNN
F 3 "" H 19250 7350 50  0001 C CNN
	1    19250 7350
	-1   0    0    1   
$EndComp
Connection ~ 2650 6700
Wire Wire Line
	2650 6700 2250 6700
Connection ~ 4350 6650
Wire Wire Line
	3850 8650 4050 8650
Wire Wire Line
	3850 8750 4100 8750
Wire Wire Line
	3950 8400 3950 8550
Wire Wire Line
	3950 8550 3850 8550
Wire Wire Line
	3850 8850 4150 8850
Wire Wire Line
	3850 8950 4200 8950
Wire Wire Line
	3850 9050 4250 9050
Wire Wire Line
	3850 9150 4300 9150
Wire Wire Line
	3850 9250 4350 9250
Connection ~ 7200 6700
Connection ~ 7600 6550
Connection ~ 9450 6700
Connection ~ 9850 6550
Wire Wire Line
	9450 6700 11700 6700
Wire Wire Line
	9850 6550 12100 6550
Connection ~ 4300 6600
Wire Wire Line
	4300 6600 4300 9150
Connection ~ 5350 6550
Connection ~ 3050 6550
Wire Wire Line
	2100 6350 4100 6350
Wire Wire Line
	2150 6300 4050 6300
Wire Wire Line
	2050 6400 4150 6400
Wire Wire Line
	3050 6550 5350 6550
Wire Wire Line
	4250 9050 4250 6500
Connection ~ 4250 6500
Wire Wire Line
	4200 8950 4200 6450
Connection ~ 4200 6450
Wire Wire Line
	4150 8850 4150 6400
Connection ~ 4150 6400
Wire Wire Line
	4100 8750 4100 6350
Connection ~ 4100 6350
Wire Wire Line
	4050 8650 4050 6300
Connection ~ 4050 6300
Connection ~ 2850 6550
Wire Wire Line
	2850 6550 3050 6550
Wire Wire Line
	2900 6500 4250 6500
Connection ~ 2950 6450
Wire Wire Line
	2950 6450 4200 6450
Connection ~ 3600 6700
Wire Wire Line
	3600 6700 4950 6700
Connection ~ 4250 6300
Connection ~ 4300 6350
Connection ~ 4350 6400
Wire Wire Line
	4100 6350 4300 6350
Wire Wire Line
	2100 6550 2850 6550
Wire Wire Line
	4150 6400 4350 6400
Wire Wire Line
	4050 6300 4250 6300
Wire Wire Line
	2650 6700 3600 6700
Connection ~ 2900 6500
Wire Wire Line
	2150 6600 2800 6600
Wire Wire Line
	2200 6650 2750 6650
Wire Wire Line
	2050 6500 2900 6500
Wire Wire Line
	1950 6550 2050 6550
Wire Wire Line
	1950 6450 2950 6450
Wire Wire Line
	1950 6350 2050 6350
Wire Wire Line
	1950 6250 2100 6250
Wire Wire Line
	1950 6150 2150 6150
Wire Wire Line
	1950 6050 2200 6050
Wire Wire Line
	1950 5950 2250 5950
Wire Wire Line
	2100 6550 2100 6650
Wire Wire Line
	2100 6650 1950 6650
Wire Wire Line
	2150 6600 2150 6750
Wire Wire Line
	2150 6750 1950 6750
Wire Wire Line
	2200 6650 2200 6850
Wire Wire Line
	1950 6850 2200 6850
Wire Wire Line
	2250 6700 2250 6950
Wire Wire Line
	1950 6950 2250 6950
Wire Wire Line
	2800 4300 2800 6600
Connection ~ 2800 6600
Wire Wire Line
	2800 6600 4300 6600
Wire Wire Line
	2750 3900 2750 6650
Connection ~ 2750 6650
Wire Wire Line
	2750 6650 4350 6650
Wire Wire Line
	7200 6700 9450 6700
Wire Wire Line
	7600 6550 9850 6550
Connection ~ 11700 6700
Connection ~ 12100 6550
Connection ~ 13950 6700
Connection ~ 14350 6550
Connection ~ 16200 6700
Connection ~ 16600 6550
Connection ~ 18450 6700
Connection ~ 18850 6550
Wire Wire Line
	11700 6700 13950 6700
Wire Wire Line
	12100 6550 14350 6550
Wire Wire Line
	13950 6700 16200 6700
Wire Wire Line
	14350 6550 16600 6550
Wire Wire Line
	18450 6700 20950 6700
Wire Wire Line
	18850 6550 21100 6550
Wire Wire Line
	16200 6700 18450 6700
Wire Wire Line
	16600 6550 18850 6550
Wire Wire Line
	4950 6700 7200 6700
Wire Wire Line
	5350 6550 7600 6550
Connection ~ 7600 6250
Wire Wire Line
	4250 6300 6350 6300
Wire Wire Line
	4300 6350 6400 6350
Wire Wire Line
	4350 6400 6450 6400
Wire Wire Line
	4200 6450 6500 6450
Wire Wire Line
	4250 6500 6550 6500
Wire Wire Line
	4300 6600 6600 6600
Wire Wire Line
	4350 6650 6650 6650
Wire Wire Line
	20150 9250 20150 6650
Wire Wire Line
	19650 9250 20150 9250
Connection ~ 20150 6650
Wire Wire Line
	20150 6650 21000 6650
Wire Wire Line
	20100 9150 20100 6600
Wire Wire Line
	19650 9150 20100 9150
Connection ~ 20100 6600
Wire Wire Line
	20100 6600 21050 6600
Wire Wire Line
	20050 9050 20050 6500
Wire Wire Line
	19650 9050 20050 9050
Connection ~ 20050 6500
Wire Wire Line
	20050 6500 21150 6500
Wire Wire Line
	20000 8950 20000 6450
Wire Wire Line
	19650 8950 20000 8950
Connection ~ 20000 6450
Wire Wire Line
	20000 6450 21250 6450
Wire Wire Line
	19950 8850 19950 6400
Wire Wire Line
	19650 8850 19950 8850
Connection ~ 19950 6400
Wire Wire Line
	19950 6400 21150 6400
Wire Wire Line
	19900 8750 19900 6350
Wire Wire Line
	19650 8750 19900 8750
Connection ~ 19900 6350
Wire Wire Line
	19900 6350 21100 6350
Wire Wire Line
	19850 8650 19850 6300
Wire Wire Line
	19650 8650 19850 8650
Connection ~ 19850 6300
Wire Wire Line
	19850 6300 21050 6300
Wire Wire Line
	17900 9250 17900 6650
Wire Wire Line
	17400 9250 17900 9250
Connection ~ 17900 6650
Wire Wire Line
	17900 6650 20150 6650
Wire Wire Line
	17850 9150 17850 6600
Wire Wire Line
	17400 9150 17850 9150
Connection ~ 17850 6600
Wire Wire Line
	17850 6600 20100 6600
Wire Wire Line
	17800 9050 17800 6500
Wire Wire Line
	17400 9050 17800 9050
Connection ~ 17800 6500
Wire Wire Line
	17800 6500 20050 6500
Wire Wire Line
	17750 8950 17750 6450
Wire Wire Line
	17400 8950 17750 8950
Connection ~ 17750 6450
Wire Wire Line
	17750 6450 20000 6450
Wire Wire Line
	17700 8850 17700 6400
Wire Wire Line
	17400 8850 17700 8850
Connection ~ 17700 6400
Wire Wire Line
	17700 6400 19950 6400
Wire Wire Line
	17650 8750 17650 6350
Wire Wire Line
	17400 8750 17650 8750
Connection ~ 17650 6350
Wire Wire Line
	17650 6350 19900 6350
Wire Wire Line
	17600 8650 17600 6300
Wire Wire Line
	17400 8650 17600 8650
Connection ~ 17600 6300
Wire Wire Line
	17600 6300 19850 6300
Wire Wire Line
	15650 9250 15650 6650
Wire Wire Line
	15150 9250 15650 9250
Connection ~ 15650 6650
Wire Wire Line
	15650 6650 17900 6650
Wire Wire Line
	15600 9150 15600 6600
Wire Wire Line
	15150 9150 15600 9150
Connection ~ 15600 6600
Wire Wire Line
	15600 6600 17850 6600
Wire Wire Line
	15550 9050 15550 6500
Wire Wire Line
	15150 9050 15550 9050
Connection ~ 15550 6500
Wire Wire Line
	15550 6500 17800 6500
Wire Wire Line
	15500 8950 15500 6450
Wire Wire Line
	15150 8950 15500 8950
Connection ~ 15500 6450
Wire Wire Line
	15500 6450 17750 6450
Wire Wire Line
	15450 8850 15450 6400
Wire Wire Line
	15150 8850 15450 8850
Connection ~ 15450 6400
Wire Wire Line
	15450 6400 17700 6400
Wire Wire Line
	15400 8750 15400 6350
Wire Wire Line
	15150 8750 15400 8750
Connection ~ 15400 6350
Wire Wire Line
	15400 6350 17650 6350
Wire Wire Line
	15350 8650 15350 6300
Wire Wire Line
	15150 8650 15350 8650
Connection ~ 15350 6300
Wire Wire Line
	15350 6300 17600 6300
Wire Wire Line
	13400 9250 13400 6650
Wire Wire Line
	12900 9250 13400 9250
Connection ~ 13400 6650
Wire Wire Line
	13400 6650 15650 6650
Wire Wire Line
	13350 9150 13350 6600
Wire Wire Line
	12900 9150 13350 9150
Connection ~ 13350 6600
Wire Wire Line
	13350 6600 15600 6600
Wire Wire Line
	13300 9050 13300 6500
Wire Wire Line
	12900 9050 13300 9050
Connection ~ 13300 6500
Wire Wire Line
	13300 6500 15550 6500
Wire Wire Line
	13250 8950 13250 6450
Wire Wire Line
	12900 8950 13250 8950
Connection ~ 13250 6450
Wire Wire Line
	13250 6450 15500 6450
Wire Wire Line
	13200 8850 13200 6400
Wire Wire Line
	12900 8850 13200 8850
Connection ~ 13200 6400
Wire Wire Line
	13200 6400 15450 6400
Wire Wire Line
	13150 8750 13150 6350
Wire Wire Line
	12900 8750 13150 8750
Connection ~ 13150 6350
Wire Wire Line
	13150 6350 15400 6350
Wire Wire Line
	13100 8650 13100 6300
Wire Wire Line
	12900 8650 13100 8650
Connection ~ 13100 6300
Wire Wire Line
	13100 6300 15350 6300
Wire Wire Line
	11150 9250 11150 6650
Wire Wire Line
	10650 9250 11150 9250
Connection ~ 11150 6650
Wire Wire Line
	11150 6650 13400 6650
Wire Wire Line
	11100 9150 11100 6600
Wire Wire Line
	10650 9150 11100 9150
Connection ~ 11100 6600
Wire Wire Line
	11100 6600 13350 6600
Wire Wire Line
	11050 9050 11050 6500
Wire Wire Line
	10650 9050 11050 9050
Connection ~ 11050 6500
Wire Wire Line
	11050 6500 13300 6500
Wire Wire Line
	11000 8950 11000 6450
Wire Wire Line
	10650 8950 11000 8950
Connection ~ 11000 6450
Wire Wire Line
	11000 6450 13250 6450
Wire Wire Line
	10950 8850 10950 6400
Wire Wire Line
	10650 8850 10950 8850
Connection ~ 10950 6400
Wire Wire Line
	10950 6400 13200 6400
Wire Wire Line
	10900 8750 10900 6350
Wire Wire Line
	10650 8750 10900 8750
Connection ~ 10900 6350
Wire Wire Line
	10900 6350 13150 6350
Wire Wire Line
	10850 8650 10850 6300
Wire Wire Line
	10650 8650 10850 8650
Connection ~ 10850 6300
Wire Wire Line
	10850 6300 13100 6300
Wire Wire Line
	8900 9250 8900 6650
Wire Wire Line
	8400 9250 8900 9250
Connection ~ 8900 6650
Wire Wire Line
	8900 6650 11150 6650
Wire Wire Line
	8850 9150 8850 6600
Wire Wire Line
	8400 9150 8850 9150
Connection ~ 8850 6600
Wire Wire Line
	8850 6600 11100 6600
Wire Wire Line
	8800 9050 8800 6500
Wire Wire Line
	8400 9050 8800 9050
Connection ~ 8800 6500
Wire Wire Line
	8800 6500 11050 6500
Wire Wire Line
	8750 8950 8750 6450
Wire Wire Line
	8400 8950 8750 8950
Connection ~ 8750 6450
Wire Wire Line
	8750 6450 11000 6450
Wire Wire Line
	8700 8850 8700 6400
Wire Wire Line
	8400 8850 8700 8850
Connection ~ 8700 6400
Wire Wire Line
	8700 6400 10950 6400
Wire Wire Line
	8650 8750 8650 6350
Wire Wire Line
	8400 8750 8650 8750
Connection ~ 8650 6350
Wire Wire Line
	8650 6350 10900 6350
Wire Wire Line
	8600 8650 8600 6300
Wire Wire Line
	8400 8650 8600 8650
Connection ~ 8600 6300
Wire Wire Line
	8600 6300 10850 6300
Wire Wire Line
	6650 9250 6650 6650
Wire Wire Line
	6150 9250 6650 9250
Connection ~ 6650 6650
Wire Wire Line
	6650 6650 8900 6650
Wire Wire Line
	6600 9150 6600 6600
Wire Wire Line
	6150 9150 6600 9150
Connection ~ 6600 6600
Wire Wire Line
	6600 6600 8850 6600
Wire Wire Line
	6550 9050 6550 6500
Wire Wire Line
	6150 9050 6550 9050
Connection ~ 6550 6500
Wire Wire Line
	6550 6500 8800 6500
Wire Wire Line
	6500 8950 6500 6450
Wire Wire Line
	6150 8950 6500 8950
Connection ~ 6500 6450
Wire Wire Line
	6500 6450 8750 6450
Wire Wire Line
	6450 8850 6450 6400
Wire Wire Line
	6150 8850 6450 8850
Connection ~ 6450 6400
Wire Wire Line
	6450 6400 8700 6400
Wire Wire Line
	6400 8750 6400 6350
Wire Wire Line
	6150 8750 6400 8750
Connection ~ 6400 6350
Wire Wire Line
	6400 6350 8650 6350
Wire Wire Line
	6350 8650 6350 6300
Wire Wire Line
	6150 8650 6350 8650
Connection ~ 6350 6300
Wire Wire Line
	6350 6300 8600 6300
Wire Wire Line
	19650 8550 19750 8550
Wire Wire Line
	19750 8550 19750 8400
Wire Wire Line
	17400 8550 17500 8550
Wire Wire Line
	17500 8550 17500 8400
Wire Wire Line
	15150 8550 15250 8550
Wire Wire Line
	15250 8550 15250 8400
Wire Wire Line
	12900 8550 13000 8550
Wire Wire Line
	13000 8550 13000 8400
Wire Wire Line
	10650 8550 10750 8550
Wire Wire Line
	10750 8550 10750 8400
Wire Wire Line
	8400 8550 8500 8550
Wire Wire Line
	8500 8550 8500 8400
Wire Wire Line
	6150 8550 6250 8550
Wire Wire Line
	6250 8550 6250 8400
Wire Wire Line
	2700 11800 3300 11800
Wire Wire Line
	2700 11800 2200 11800
Connection ~ 2700 11800
$Comp
L Connector:SCART-F J1
U 1 1 60339898
P 3300 11200
F 0 "J1" H 3300 12620 50  0000 C CNN
F 1 "SCART-INPUT-1" H 3300 12529 50  0000 C CNN
F 2 "SamacSys_Parts:KSCARTX024" H 3300 11250 50  0001 C CNN
F 3 " ~" H 3300 11250 50  0001 C CNN
	1    3300 11200
	1    0    0    -1  
$EndComp
$Comp
L power:GNDREF #PWR0122
U 1 1 6099215D
P 3550 12650
F 0 "#PWR0122" H 3550 12400 50  0001 C CNN
F 1 "GNDREF" V 3555 12522 50  0000 R CNN
F 2 "" H 3550 12650 50  0001 C CNN
F 3 "" H 3550 12650 50  0001 C CNN
	1    3550 12650
	0    -1   -1   0   
$EndComp
$Comp
L Device:R R13
U 1 1 60994A26
P 3100 12850
F 0 "R13" H 3170 12896 50  0000 L CNN
F 1 "1K" H 3170 12805 50  0000 L CNN
F 2 "Resistor_THT:R_Axial_DIN0207_L6.3mm_D2.5mm_P10.16mm_Horizontal" V 3030 12850 50  0001 C CNN
F 3 "~" H 3100 12850 50  0001 C CNN
	1    3100 12850
	1    0    0    -1  
$EndComp
Text GLabel 3100 13050 3    50   Input ~ 0
RELAIS1
Wire Wire Line
	3100 13050 3100 13000
Wire Wire Line
	3100 12700 3100 12650
Wire Wire Line
	3100 12650 3150 12650
Wire Wire Line
	3450 12650 3550 12650
$Comp
L Device:LED D2
U 1 1 60DD5707
P 5600 12650
F 0 "D2" H 5593 12395 50  0000 C CNN
F 1 "LED" H 5593 12486 50  0000 C CNN
F 2 "LED_THT:LED_D5.0mm" H 5600 12650 50  0001 C CNN
F 3 "~" H 5600 12650 50  0001 C CNN
	1    5600 12650
	-1   0    0    1   
$EndComp
$Comp
L power:GNDREF #PWR0123
U 1 1 60DD570D
P 5850 12650
F 0 "#PWR0123" H 5850 12400 50  0001 C CNN
F 1 "GNDREF" V 5855 12522 50  0000 R CNN
F 2 "" H 5850 12650 50  0001 C CNN
F 3 "" H 5850 12650 50  0001 C CNN
	1    5850 12650
	0    -1   -1   0   
$EndComp
$Comp
L Device:R R14
U 1 1 60DD5713
P 5400 12850
F 0 "R14" H 5470 12896 50  0000 L CNN
F 1 "1K" H 5470 12805 50  0000 L CNN
F 2 "Resistor_THT:R_Axial_DIN0207_L6.3mm_D2.5mm_P10.16mm_Horizontal" V 5330 12850 50  0001 C CNN
F 3 "~" H 5400 12850 50  0001 C CNN
	1    5400 12850
	1    0    0    -1  
$EndComp
Text GLabel 5400 13050 3    50   Input ~ 0
RELAIS2
Wire Wire Line
	5400 13050 5400 13000
Wire Wire Line
	5400 12700 5400 12650
Wire Wire Line
	5400 12650 5450 12650
Wire Wire Line
	5750 12650 5850 12650
$Comp
L Device:LED D3
U 1 1 60EAFF37
P 7850 12650
F 0 "D3" H 7843 12395 50  0000 C CNN
F 1 "LED" H 7843 12486 50  0000 C CNN
F 2 "LED_THT:LED_D5.0mm" H 7850 12650 50  0001 C CNN
F 3 "~" H 7850 12650 50  0001 C CNN
	1    7850 12650
	-1   0    0    1   
$EndComp
$Comp
L power:GNDREF #PWR0124
U 1 1 60EAFF3D
P 8100 12650
F 0 "#PWR0124" H 8100 12400 50  0001 C CNN
F 1 "GNDREF" V 8105 12522 50  0000 R CNN
F 2 "" H 8100 12650 50  0001 C CNN
F 3 "" H 8100 12650 50  0001 C CNN
	1    8100 12650
	0    -1   -1   0   
$EndComp
$Comp
L Device:R R15
U 1 1 60EAFF43
P 7650 12850
F 0 "R15" H 7720 12896 50  0000 L CNN
F 1 "1K" H 7720 12805 50  0000 L CNN
F 2 "Resistor_THT:R_Axial_DIN0207_L6.3mm_D2.5mm_P10.16mm_Horizontal" V 7580 12850 50  0001 C CNN
F 3 "~" H 7650 12850 50  0001 C CNN
	1    7650 12850
	1    0    0    -1  
$EndComp
Text GLabel 7650 13050 3    50   Input ~ 0
RELAIS3
Wire Wire Line
	7650 13050 7650 13000
Wire Wire Line
	7650 12700 7650 12650
Wire Wire Line
	7650 12650 7700 12650
Wire Wire Line
	8000 12650 8100 12650
$Comp
L Device:LED D4
U 1 1 60F8CA0D
P 10100 12650
F 0 "D4" H 10093 12395 50  0000 C CNN
F 1 "LED" H 10093 12486 50  0000 C CNN
F 2 "LED_THT:LED_D5.0mm" H 10100 12650 50  0001 C CNN
F 3 "~" H 10100 12650 50  0001 C CNN
	1    10100 12650
	-1   0    0    1   
$EndComp
$Comp
L power:GNDREF #PWR0125
U 1 1 60F8CA13
P 10350 12650
F 0 "#PWR0125" H 10350 12400 50  0001 C CNN
F 1 "GNDREF" V 10355 12522 50  0000 R CNN
F 2 "" H 10350 12650 50  0001 C CNN
F 3 "" H 10350 12650 50  0001 C CNN
	1    10350 12650
	0    -1   -1   0   
$EndComp
$Comp
L Device:R R16
U 1 1 60F8CA19
P 9900 12850
F 0 "R16" H 9970 12896 50  0000 L CNN
F 1 "1K" H 9970 12805 50  0000 L CNN
F 2 "Resistor_THT:R_Axial_DIN0207_L6.3mm_D2.5mm_P10.16mm_Horizontal" V 9830 12850 50  0001 C CNN
F 3 "~" H 9900 12850 50  0001 C CNN
	1    9900 12850
	1    0    0    -1  
$EndComp
Text GLabel 9900 13050 3    50   Input ~ 0
RELAIS4
Wire Wire Line
	9900 13050 9900 13000
Wire Wire Line
	9900 12700 9900 12650
Wire Wire Line
	9900 12650 9950 12650
Wire Wire Line
	10250 12650 10350 12650
$Comp
L Device:LED D5
U 1 1 6106B4CC
P 12350 12650
F 0 "D5" H 12343 12395 50  0000 C CNN
F 1 "LED" H 12343 12486 50  0000 C CNN
F 2 "LED_THT:LED_D5.0mm" H 12350 12650 50  0001 C CNN
F 3 "~" H 12350 12650 50  0001 C CNN
	1    12350 12650
	-1   0    0    1   
$EndComp
$Comp
L power:GNDREF #PWR0126
U 1 1 6106B4D2
P 12600 12650
F 0 "#PWR0126" H 12600 12400 50  0001 C CNN
F 1 "GNDREF" V 12605 12522 50  0000 R CNN
F 2 "" H 12600 12650 50  0001 C CNN
F 3 "" H 12600 12650 50  0001 C CNN
	1    12600 12650
	0    -1   -1   0   
$EndComp
$Comp
L Device:R R17
U 1 1 6106B4D8
P 12150 12850
F 0 "R17" H 12220 12896 50  0000 L CNN
F 1 "1K" H 12220 12805 50  0000 L CNN
F 2 "Resistor_THT:R_Axial_DIN0207_L6.3mm_D2.5mm_P10.16mm_Horizontal" V 12080 12850 50  0001 C CNN
F 3 "~" H 12150 12850 50  0001 C CNN
	1    12150 12850
	1    0    0    -1  
$EndComp
Text GLabel 12150 13050 3    50   Input ~ 0
RELAIS5
Wire Wire Line
	12150 13050 12150 13000
Wire Wire Line
	12150 12700 12150 12650
Wire Wire Line
	12150 12650 12200 12650
Wire Wire Line
	12500 12650 12600 12650
$Comp
L Device:LED D6
U 1 1 6114BCBD
P 14600 12650
F 0 "D6" H 14593 12395 50  0000 C CNN
F 1 "LED" H 14593 12486 50  0000 C CNN
F 2 "LED_THT:LED_D5.0mm" H 14600 12650 50  0001 C CNN
F 3 "~" H 14600 12650 50  0001 C CNN
	1    14600 12650
	-1   0    0    1   
$EndComp
$Comp
L power:GNDREF #PWR0127
U 1 1 6114BCC3
P 14850 12650
F 0 "#PWR0127" H 14850 12400 50  0001 C CNN
F 1 "GNDREF" V 14855 12522 50  0000 R CNN
F 2 "" H 14850 12650 50  0001 C CNN
F 3 "" H 14850 12650 50  0001 C CNN
	1    14850 12650
	0    -1   -1   0   
$EndComp
$Comp
L Device:R R18
U 1 1 6114BCC9
P 14400 12850
F 0 "R18" H 14470 12896 50  0000 L CNN
F 1 "1K" H 14470 12805 50  0000 L CNN
F 2 "Resistor_THT:R_Axial_DIN0207_L6.3mm_D2.5mm_P10.16mm_Horizontal" V 14330 12850 50  0001 C CNN
F 3 "~" H 14400 12850 50  0001 C CNN
	1    14400 12850
	1    0    0    -1  
$EndComp
Text GLabel 14400 13050 3    50   Input ~ 0
RELAIS6
Wire Wire Line
	14400 13050 14400 13000
Wire Wire Line
	14400 12700 14400 12650
Wire Wire Line
	14400 12650 14450 12650
Wire Wire Line
	14750 12650 14850 12650
$Comp
L Device:LED D7
U 1 1 6122DFA2
P 16850 12650
F 0 "D7" H 16843 12395 50  0000 C CNN
F 1 "LED" H 16843 12486 50  0000 C CNN
F 2 "LED_THT:LED_D5.0mm" H 16850 12650 50  0001 C CNN
F 3 "~" H 16850 12650 50  0001 C CNN
	1    16850 12650
	-1   0    0    1   
$EndComp
$Comp
L power:GNDREF #PWR0128
U 1 1 6122DFA8
P 17100 12650
F 0 "#PWR0128" H 17100 12400 50  0001 C CNN
F 1 "GNDREF" V 17105 12522 50  0000 R CNN
F 2 "" H 17100 12650 50  0001 C CNN
F 3 "" H 17100 12650 50  0001 C CNN
	1    17100 12650
	0    -1   -1   0   
$EndComp
$Comp
L Device:R R19
U 1 1 6122DFAE
P 16650 12850
F 0 "R19" H 16720 12896 50  0000 L CNN
F 1 "1K" H 16720 12805 50  0000 L CNN
F 2 "Resistor_THT:R_Axial_DIN0207_L6.3mm_D2.5mm_P10.16mm_Horizontal" V 16580 12850 50  0001 C CNN
F 3 "~" H 16650 12850 50  0001 C CNN
	1    16650 12850
	1    0    0    -1  
$EndComp
Text GLabel 16650 13050 3    50   Input ~ 0
RELAIS7
Wire Wire Line
	16650 13050 16650 13000
Wire Wire Line
	16650 12700 16650 12650
Wire Wire Line
	16650 12650 16700 12650
Wire Wire Line
	17000 12650 17100 12650
$Comp
L Device:LED D8
U 1 1 61311BB9
P 19100 12650
F 0 "D8" H 19093 12395 50  0000 C CNN
F 1 "LED" H 19093 12486 50  0000 C CNN
F 2 "LED_THT:LED_D5.0mm" H 19100 12650 50  0001 C CNN
F 3 "~" H 19100 12650 50  0001 C CNN
	1    19100 12650
	-1   0    0    1   
$EndComp
$Comp
L power:GNDREF #PWR0130
U 1 1 61311BBF
P 19350 12650
F 0 "#PWR0130" H 19350 12400 50  0001 C CNN
F 1 "GNDREF" V 19355 12522 50  0000 R CNN
F 2 "" H 19350 12650 50  0001 C CNN
F 3 "" H 19350 12650 50  0001 C CNN
	1    19350 12650
	0    -1   -1   0   
$EndComp
$Comp
L Device:R R20
U 1 1 61311BC5
P 18900 12850
F 0 "R20" H 18970 12896 50  0000 L CNN
F 1 "1K" H 18970 12805 50  0000 L CNN
F 2 "Resistor_THT:R_Axial_DIN0207_L6.3mm_D2.5mm_P10.16mm_Horizontal" V 18830 12850 50  0001 C CNN
F 3 "~" H 18900 12850 50  0001 C CNN
	1    18900 12850
	1    0    0    -1  
$EndComp
Text GLabel 18900 13050 3    50   Input ~ 0
RELAIS8
Wire Wire Line
	18900 13050 18900 13000
Wire Wire Line
	18900 12700 18900 12650
Wire Wire Line
	18900 12650 18950 12650
Wire Wire Line
	19250 12650 19350 12650
$Comp
L Connector:Conn_01x13_Female J-EXT1
U 1 1 60489A68
P 1750 6450
F 0 "J-EXT1" H 1778 6426 50  0000 L CNN
F 1 "EXTENSION" H 1778 6335 50  0000 L CNN
F 2 "Connector_PinSocket_2.54mm:PinSocket_1x13_P2.54mm_Horizontal" H 1750 6450 50  0001 C CNN
F 3 "~" H 1750 6450 50  0001 C CNN
	1    1750 6450
	-1   0    0    1   
$EndComp
$Comp
L Connector:Conn_01x13_Female J-EXT2
U 1 1 60D39724
P 21450 6450
F 0 "J-EXT2" H 21478 6426 50  0000 L CNN
F 1 "EXTENSION" H 21478 6335 50  0000 L CNN
F 2 "Connector_PinSocket_2.54mm:PinSocket_1x13_P2.54mm_Horizontal" H 21450 6450 50  0001 C CNN
F 3 "~" H 21450 6450 50  0001 C CNN
	1    21450 6450
	1    0    0    -1  
$EndComp
Text GLabel 2000 5800 1    50   Input ~ 0
+5V
Text GLabel 21200 5800 1    50   Input ~ 0
+5V
Wire Wire Line
	21200 5800 21200 5850
Wire Wire Line
	21200 5850 21250 5850
Wire Wire Line
	2000 5800 2000 5850
Wire Wire Line
	2000 5850 1950 5850
Wire Wire Line
	11350 5050 11350 5300
Connection ~ 11350 5050
Wire Wire Line
	11400 5050 11350 5050
$Comp
L power:GNDREF #PWR0129
U 1 1 62F229C2
P 11400 5050
F 0 "#PWR0129" H 11400 4800 50  0001 C CNN
F 1 "GNDREF" V 11405 4922 50  0000 R CNN
F 2 "" H 11400 5050 50  0001 C CNN
F 3 "" H 11400 5050 50  0001 C CNN
	1    11400 5050
	0    -1   -1   0   
$EndComp
Wire Wire Line
	11350 5300 11200 5300
Wire Wire Line
	11350 4850 11350 5050
Wire Wire Line
	11200 4850 11350 4850
Wire Wire Line
	10650 5300 10800 5300
Wire Wire Line
	10650 4850 10800 4850
$Comp
L Switch:SW_Push SW3
U 1 1 62D58B93
P 11000 5300
F 0 "SW3" H 11000 5585 50  0000 C CNN
F 1 "Next" H 11000 5494 50  0000 C CNN
F 2 "Connector_PinSocket_2.54mm:PinSocket_1x02_P2.54mm_Vertical" H 11000 5500 50  0001 C CNN
F 3 "~" H 11000 5500 50  0001 C CNN
	1    11000 5300
	1    0    0    -1  
$EndComp
$Comp
L Switch:SW_Push SW2
U 1 1 62D56805
P 11000 4850
F 0 "SW2" H 11000 5135 50  0000 C CNN
F 1 "Previous" H 11000 5044 50  0000 C CNN
F 2 "Connector_PinSocket_2.54mm:PinSocket_1x02_P2.54mm_Vertical" H 11000 5050 50  0001 C CNN
F 3 "~" H 11000 5050 50  0001 C CNN
	1    11000 4850
	1    0    0    -1  
$EndComp
Text GLabel 10650 5300 0    50   Input ~ 0
D3
Text GLabel 10650 4850 0    50   Input ~ 0
D2
Wire Wire Line
	10850 3300 12550 3300
Wire Wire Line
	10450 3200 12450 3200
Wire Wire Line
	10050 3100 12350 3100
$Comp
L SamacSys_Parts:ARD-NANO30NP ARDUINO1
U 1 1 6454B5EA
P 8700 4000
F 0 "ARDUINO1" H 9400 4265 50  0000 C CNN
F 1 "ARD-NANO30NP" H 9400 4174 50  0000 C CNN
F 2 "ARDNANO30NP" H 9950 4100 50  0001 L CNN
F 3 "http://www.mouser.com/datasheet/2/595/Arduino_Nano3_0-220057.pdf" H 9950 4000 50  0001 L CNN
F 4 "Development Boards & Kits - AVR Arduino Nano 3.1 W/ATMEGA328 NO-PIN" H 9950 3900 50  0001 L CNN "Description"
F 5 "5" H 9950 3800 50  0001 L CNN "Height"
F 6 "Gravitech" H 9950 3700 50  0001 L CNN "Manufacturer_Name"
F 7 "ARD-NANO30NP" H 9950 3600 50  0001 L CNN "Manufacturer_Part_Number"
F 8 "992-ARD-NANO30NP" H 9950 3500 50  0001 L CNN "Mouser Part Number"
F 9 "https://www.mouser.co.uk/ProductDetail/Gravitech/ARD-NANO30NP?qs=Vxac6xGyzPlh7in3DWNTbQ%3D%3D" H 9950 3400 50  0001 L CNN "Mouser Price/Stock"
F 10 "" H 9950 3300 50  0001 L CNN "Arrow Part Number"
F 11 "" H 9950 3200 50  0001 L CNN "Arrow Price/Stock"
	1    8700 4000
	1    0    0    -1  
$EndComp
Wire Wire Line
	10100 4100 10250 4100
Wire Wire Line
	10100 4200 10250 4200
Wire Wire Line
	10100 4700 10250 4700
Wire Wire Line
	10250 4700 10250 6250
Wire Wire Line
	10100 4800 10200 4800
Wire Wire Line
	10200 4800 10200 6200
Wire Wire Line
	8700 4500 8450 4500
Wire Wire Line
	8450 4500 8450 5800
Wire Wire Line
	8450 5800 8400 5800
Wire Wire Line
	8700 4600 8500 4600
Wire Wire Line
	8500 4600 8500 5900
Wire Wire Line
	8500 5900 8400 5900
Wire Wire Line
	7600 6250 10250 6250
Wire Wire Line
	7350 6200 10200 6200
Connection ~ 10200 6200
Connection ~ 10250 6250
Wire Wire Line
	10250 6250 21000 6250
$Comp
L Device:C C9
U 1 1 6044D393
P 14900 5200
F 0 "C9" H 15015 5246 50  0000 L CNN
F 1 "100nF" H 15015 5155 50  0000 L CNN
F 2 "Capacitor_THT:C_Disc_D4.3mm_W1.9mm_P5.00mm" H 14938 5050 50  0001 C CNN
F 3 "~" H 14900 5200 50  0001 C CNN
	1    14900 5200
	1    0    0    -1  
$EndComp
$Comp
L Device:C C3
U 1 1 60610EAD
P 12500 5200
F 0 "C3" H 12385 5154 50  0000 R CNN
F 1 "100nF" H 12385 5245 50  0000 R CNN
F 2 "Capacitor_THT:C_Disc_D4.3mm_W1.9mm_P5.00mm" H 12538 5050 50  0001 C CNN
F 3 "~" H 12500 5200 50  0001 C CNN
	1    12500 5200
	-1   0    0    1   
$EndComp
$Comp
L Device:C C4
U 1 1 606F1C7C
P 13700 3900
F 0 "C4" H 13585 3854 50  0000 R CNN
F 1 "100nF" H 13585 3945 50  0000 R CNN
F 2 "Capacitor_THT:C_Disc_D4.3mm_W1.9mm_P5.00mm" H 13738 3750 50  0001 C CNN
F 3 "~" H 13700 3900 50  0001 C CNN
	1    13700 3900
	-1   0    0    1   
$EndComp
$Comp
L Device:C C5
U 1 1 607D2A31
P 13700 4550
F 0 "C5" H 13585 4504 50  0000 R CNN
F 1 "100nF" H 13585 4595 50  0000 R CNN
F 2 "Capacitor_THT:C_Disc_D4.3mm_W1.9mm_P5.00mm" H 13738 4400 50  0001 C CNN
F 3 "~" H 13700 4550 50  0001 C CNN
	1    13700 4550
	-1   0    0    1   
$EndComp
$Comp
L Device:C C6
U 1 1 608B37AC
P 13700 5200
F 0 "C6" H 13585 5154 50  0000 R CNN
F 1 "100nF" H 13585 5245 50  0000 R CNN
F 2 "Capacitor_THT:C_Disc_D4.3mm_W1.9mm_P5.00mm" H 13738 5050 50  0001 C CNN
F 3 "~" H 13700 5200 50  0001 C CNN
	1    13700 5200
	-1   0    0    1   
$EndComp
$Comp
L Device:C C7
U 1 1 6099461F
P 14900 3900
F 0 "C7" H 14785 3854 50  0000 R CNN
F 1 "100nF" H 14785 3945 50  0000 R CNN
F 2 "Capacitor_THT:C_Disc_D4.3mm_W1.9mm_P5.00mm" H 14938 3750 50  0001 C CNN
F 3 "~" H 14900 3900 50  0001 C CNN
	1    14900 3900
	-1   0    0    1   
$EndComp
$Comp
L Device:C C8
U 1 1 60A75424
P 14900 4550
F 0 "C8" H 14785 4504 50  0000 R CNN
F 1 "100nF" H 14785 4595 50  0000 R CNN
F 2 "Capacitor_THT:C_Disc_D4.3mm_W1.9mm_P5.00mm" H 14938 4400 50  0001 C CNN
F 3 "~" H 14900 4550 50  0001 C CNN
	1    14900 4550
	-1   0    0    1   
$EndComp
Text GLabel 6250 8400 1    50   Input ~ 0
SCART2
$Comp
L Device:C C2
U 1 1 61345C23
P 12500 4550
F 0 "C2" H 12385 4504 50  0000 R CNN
F 1 "100nF" H 12385 4595 50  0000 R CNN
F 2 "Capacitor_THT:C_Disc_D4.3mm_W1.9mm_P5.00mm" H 12538 4400 50  0001 C CNN
F 3 "~" H 12500 4550 50  0001 C CNN
	1    12500 4550
	-1   0    0    1   
$EndComp
$Comp
L Device:C C1
U 1 1 61427D0F
P 12500 3900
F 0 "C1" H 12385 3854 50  0000 R CNN
F 1 "100nF" H 12385 3945 50  0000 R CNN
F 2 "Capacitor_THT:C_Disc_D4.3mm_W1.9mm_P5.00mm" H 12538 3750 50  0001 C CNN
F 3 "~" H 12500 3900 50  0001 C CNN
	1    12500 3900
	-1   0    0    1   
$EndComp
Text GLabel 12250 3750 0    50   Input ~ 0
+5V
Text GLabel 12250 4400 0    50   Input ~ 0
+5V
Text GLabel 12250 5050 0    50   Input ~ 0
+5V
Text GLabel 13450 3750 0    50   Input ~ 0
+5V
Text GLabel 13450 4400 0    50   Input ~ 0
+5V
Text GLabel 13450 5050 0    50   Input ~ 0
+5V
Text GLabel 14650 5050 0    50   Input ~ 0
+5V
Text GLabel 14650 4400 0    50   Input ~ 0
+5V
Text GLabel 14650 3750 0    50   Input ~ 0
+5V
Wire Wire Line
	12250 3750 12500 3750
Connection ~ 12500 3750
Wire Wire Line
	12500 3750 12750 3750
Connection ~ 12500 4400
Wire Wire Line
	12500 4400 12750 4400
Wire Wire Line
	12250 4400 12500 4400
Wire Wire Line
	12250 5050 12500 5050
Connection ~ 12500 5050
Wire Wire Line
	12500 5050 12750 5050
Wire Wire Line
	13450 5050 13700 5050
Connection ~ 13700 5050
Wire Wire Line
	13700 5050 13950 5050
Wire Wire Line
	13450 4400 13700 4400
Connection ~ 13700 4400
Wire Wire Line
	13700 4400 13950 4400
Wire Wire Line
	13450 3750 13700 3750
Connection ~ 13700 3750
Wire Wire Line
	13700 3750 13950 3750
Wire Wire Line
	14650 3750 14900 3750
Connection ~ 14900 3750
Wire Wire Line
	14900 3750 15150 3750
Wire Wire Line
	14650 4400 14900 4400
Connection ~ 14900 4400
Wire Wire Line
	14900 4400 15150 4400
Wire Wire Line
	14650 5050 14900 5050
Connection ~ 14900 5050
Wire Wire Line
	14900 5050 15150 5050
$Comp
L power:GNDREF #PWR0131
U 1 1 65E904C3
P 12500 5350
F 0 "#PWR0131" H 12500 5100 50  0001 C CNN
F 1 "GNDREF" H 12505 5177 50  0000 C CNN
F 2 "" H 12500 5350 50  0001 C CNN
F 3 "" H 12500 5350 50  0001 C CNN
	1    12500 5350
	1    0    0    -1  
$EndComp
$Comp
L power:GNDREF #PWR0132
U 1 1 65F7CB97
P 13700 5350
F 0 "#PWR0132" H 13700 5100 50  0001 C CNN
F 1 "GNDREF" H 13705 5177 50  0000 C CNN
F 2 "" H 13700 5350 50  0001 C CNN
F 3 "" H 13700 5350 50  0001 C CNN
	1    13700 5350
	1    0    0    -1  
$EndComp
$Comp
L power:GNDREF #PWR0133
U 1 1 660673BB
P 14900 5350
F 0 "#PWR0133" H 14900 5100 50  0001 C CNN
F 1 "GNDREF" H 14905 5177 50  0000 C CNN
F 2 "" H 14900 5350 50  0001 C CNN
F 3 "" H 14900 5350 50  0001 C CNN
	1    14900 5350
	1    0    0    -1  
$EndComp
$Comp
L power:GNDREF #PWR0134
U 1 1 66151BF6
P 14900 4700
F 0 "#PWR0134" H 14900 4450 50  0001 C CNN
F 1 "GNDREF" H 14905 4527 50  0000 C CNN
F 2 "" H 14900 4700 50  0001 C CNN
F 3 "" H 14900 4700 50  0001 C CNN
	1    14900 4700
	1    0    0    -1  
$EndComp
$Comp
L power:GNDREF #PWR0135
U 1 1 6623C41A
P 13700 4700
F 0 "#PWR0135" H 13700 4450 50  0001 C CNN
F 1 "GNDREF" H 13705 4527 50  0000 C CNN
F 2 "" H 13700 4700 50  0001 C CNN
F 3 "" H 13700 4700 50  0001 C CNN
	1    13700 4700
	1    0    0    -1  
$EndComp
$Comp
L power:GNDREF #PWR0136
U 1 1 66326C3E
P 12500 4700
F 0 "#PWR0136" H 12500 4450 50  0001 C CNN
F 1 "GNDREF" H 12505 4527 50  0000 C CNN
F 2 "" H 12500 4700 50  0001 C CNN
F 3 "" H 12500 4700 50  0001 C CNN
	1    12500 4700
	1    0    0    -1  
$EndComp
$Comp
L power:GNDREF #PWR0137
U 1 1 664114BE
P 12500 4050
F 0 "#PWR0137" H 12500 3800 50  0001 C CNN
F 1 "GNDREF" H 12505 3877 50  0000 C CNN
F 2 "" H 12500 4050 50  0001 C CNN
F 3 "" H 12500 4050 50  0001 C CNN
	1    12500 4050
	1    0    0    -1  
$EndComp
$Comp
L power:GNDREF #PWR0138
U 1 1 665E7888
P 13700 4050
F 0 "#PWR0138" H 13700 3800 50  0001 C CNN
F 1 "GNDREF" H 13705 3877 50  0000 C CNN
F 2 "" H 13700 4050 50  0001 C CNN
F 3 "" H 13700 4050 50  0001 C CNN
	1    13700 4050
	1    0    0    -1  
$EndComp
$Comp
L power:GNDREF #PWR0139
U 1 1 666D232D
P 14900 4050
F 0 "#PWR0139" H 14900 3800 50  0001 C CNN
F 1 "GNDREF" H 14905 3877 50  0000 C CNN
F 2 "" H 14900 4050 50  0001 C CNN
F 3 "" H 14900 4050 50  0001 C CNN
	1    14900 4050
	1    0    0    -1  
$EndComp
Text GLabel 12750 3750 2    50   Input ~ 0
DECOUP1
Text GLabel 12750 4400 2    50   Input ~ 0
DECOUP2
Text GLabel 12750 5050 2    50   Input ~ 0
DECOUP3
Text GLabel 13950 5050 2    50   Input ~ 0
DECOUP6
Text GLabel 13950 4400 2    50   Input ~ 0
DECOUP5
Text GLabel 13950 3750 2    50   Input ~ 0
DECOUP4
Text GLabel 15150 3750 2    50   Input ~ 0
DECOUP7
Text GLabel 15150 4400 2    50   Input ~ 0
DECOUP8
Text GLabel 15150 5050 2    50   Input ~ 0
DECOUP9
Text GLabel 3850 8400 1    50   Input ~ 0
DECOUP1
Text GLabel 19650 8400 1    50   Input ~ 0
DECOUP8
Text GLabel 17400 8400 1    50   Input ~ 0
DECOUP7
Text GLabel 15150 8400 1    50   Input ~ 0
DECOUP6
Text GLabel 12900 8400 1    50   Input ~ 0
DECOUP5
Text GLabel 10650 8400 1    50   Input ~ 0
DECOUP4
Text GLabel 8400 8400 1    50   Input ~ 0
DECOUP3
Text GLabel 6150 8400 1    50   Input ~ 0
DECOUP2
Wire Wire Line
	3850 8450 3850 8400
Wire Wire Line
	6150 8450 6150 8400
Wire Wire Line
	8400 8450 8400 8400
Wire Wire Line
	10650 8450 10650 8400
Wire Wire Line
	12900 8450 12900 8400
Wire Wire Line
	15150 8450 15150 8400
Wire Wire Line
	17400 8450 17400 8400
Wire Wire Line
	19650 8450 19650 8400
Wire Wire Line
	2250 6200 4550 6200
Wire Wire Line
	2200 6250 4500 6250
Wire Wire Line
	4250 4400 4250 6300
$Comp
L Interface_Expansion:TCA9554DW U1
U 1 1 624FE3C2
P 6250 3100
F 0 "U1" H 6250 3781 50  0000 C CNN
F 1 "TCA9554DW" H 6250 3690 50  0000 C CNN
F 2 "Package_SO:SOIC-16W_7.5x10.3mm_P1.27mm" H 7200 2550 50  0001 C CNN
F 3 "http://www.ti.com/lit/ds/symlink/tca9554.pdf" H 6350 3000 50  0001 C CNN
	1    6250 3100
	1    0    0    -1  
$EndComp
Text GLabel 4900 1900 0    50   Input ~ 0
DECOUP9
$Comp
L power:GNDREF #PWR0102
U 1 1 6061B00C
P 6250 3700
F 0 "#PWR0102" H 6250 3450 50  0001 C CNN
F 1 "GNDREF" H 6255 3527 50  0000 C CNN
F 2 "" H 6250 3700 50  0001 C CNN
F 3 "" H 6250 3700 50  0001 C CNN
	1    6250 3700
	1    0    0    -1  
$EndComp
$Comp
L Connector:SCART-F J0
U 1 1 6035691E
P 3600 4800
F 0 "J0" H 3600 6220 50  0000 C CNN
F 1 "SCART-OUTPUT" H 3600 6129 50  0000 C CNN
F 2 "SamacSys_Parts:KSCARTX024" H 3600 4850 50  0001 C CNN
F 3 " ~" H 3600 4850 50  0001 C CNN
	1    3600 4800
	-1   0    0    1   
$EndComp
Wire Wire Line
	8850 2800 6650 2800
Connection ~ 8850 2800
Wire Wire Line
	6650 2900 9250 2900
Connection ~ 9250 2900
Wire Wire Line
	9650 3000 6650 3000
Connection ~ 9650 3000
Wire Wire Line
	10050 3100 6650 3100
Connection ~ 10050 3100
Wire Wire Line
	10450 3200 6650 3200
Connection ~ 10450 3200
Wire Wire Line
	10850 3300 6650 3300
Connection ~ 10850 3300
Wire Wire Line
	11250 3400 6650 3400
Connection ~ 11250 3400
Wire Wire Line
	11650 3500 6650 3500
Connection ~ 11650 3500
Wire Wire Line
	5850 2800 4500 2800
Wire Wire Line
	4500 2800 4500 6250
Connection ~ 4500 6250
Wire Wire Line
	4500 6250 7600 6250
Wire Wire Line
	5850 2900 4550 2900
Wire Wire Line
	4550 2900 4550 6200
Connection ~ 4550 6200
Wire Wire Line
	4550 6200 7350 6200
Wire Wire Line
	5650 2600 6250 2600
Wire Wire Line
	5400 2700 5400 3300
Wire Wire Line
	5400 3300 5450 3300
Wire Wire Line
	5300 2700 5300 3400
Wire Wire Line
	5300 3400 5350 3400
Wire Wire Line
	5200 2700 5200 3500
Wire Wire Line
	5200 3500 5250 3500
$Comp
L Device:R R21
U 1 1 6AB7E835
P 5750 3750
F 0 "R21" H 5820 3796 50  0000 L CNN
F 1 "10k" H 5820 3705 50  0000 L CNN
F 2 "Resistor_THT:R_Axial_DIN0207_L6.3mm_D2.5mm_P10.16mm_Horizontal" V 5680 3750 50  0001 C CNN
F 3 "~" H 5750 3750 50  0001 C CNN
	1    5750 3750
	0    -1   -1   0   
$EndComp
$Comp
L Device:R R22
U 1 1 6AC6B0E3
P 5750 4050
F 0 "R22" H 5820 4096 50  0000 L CNN
F 1 "10k" H 5820 4005 50  0000 L CNN
F 2 "Resistor_THT:R_Axial_DIN0207_L6.3mm_D2.5mm_P10.16mm_Horizontal" V 5680 4050 50  0001 C CNN
F 3 "~" H 5750 4050 50  0001 C CNN
	1    5750 4050
	0    -1   -1   0   
$EndComp
$Comp
L Device:R R23
U 1 1 6AE440CC
P 5750 4350
F 0 "R23" H 5820 4396 50  0000 L CNN
F 1 "10k" H 5820 4305 50  0000 L CNN
F 2 "Resistor_THT:R_Axial_DIN0207_L6.3mm_D2.5mm_P10.16mm_Horizontal" V 5680 4350 50  0001 C CNN
F 3 "~" H 5750 4350 50  0001 C CNN
	1    5750 4350
	0    -1   -1   0   
$EndComp
Wire Wire Line
	5900 3750 5900 4050
Wire Wire Line
	5900 4050 5900 4350
Connection ~ 5900 4050
Wire Wire Line
	5600 4350 5250 4350
Wire Wire Line
	5250 4350 5250 3500
Connection ~ 5250 3500
Wire Wire Line
	5250 3500 5850 3500
Wire Wire Line
	5600 4050 5350 4050
Wire Wire Line
	5350 4050 5350 3400
Connection ~ 5350 3400
Wire Wire Line
	5350 3400 5850 3400
Wire Wire Line
	5600 3750 5450 3750
Wire Wire Line
	5450 3750 5450 3300
Connection ~ 5450 3300
Wire Wire Line
	5450 3300 5850 3300
$Comp
L power:GNDREF #PWR0140
U 1 1 6B97D7EE
P 5900 4050
F 0 "#PWR0140" H 5900 3800 50  0001 C CNN
F 1 "GNDREF" V 5905 3922 50  0000 R CNN
F 2 "" H 5900 4050 50  0001 C CNN
F 3 "" H 5900 4050 50  0001 C CNN
	1    5900 4050
	0    -1   -1   0   
$EndComp
$Comp
L SamacSys_Parts:210-3MS S1
U 1 1 6B97F71A
P 5400 1900
F 0 "S1" V 5754 2028 50  0000 L CNN
F 1 "210-3MS" V 5845 2028 50  0000 L CNN
F 2 "DIP775W63P254L909H458Q6N" H 6050 2000 50  0001 L CNN
F 3 "https://www.ctscorp.com/wp-content/uploads/209-210.pdf" H 6050 1900 50  0001 L CNN
F 4 "DIP Switches / SIP Switches 3 switch sections SPST" H 6050 1800 50  0001 L CNN "Description"
F 5 "4.58" H 6050 1700 50  0001 L CNN "Height"
F 6 "CTS" H 6050 1600 50  0001 L CNN "Manufacturer_Name"
F 7 "210-3MS" H 6050 1500 50  0001 L CNN "Manufacturer_Part_Number"
F 8 "774-2103MS" H 6050 1400 50  0001 L CNN "Mouser Part Number"
F 9 "https://www.mouser.co.uk/ProductDetail/CTS-Electronic-Components/210-3MS/?qs=hDoPxpGr7lcIzEONcktFFg%3D%3D" H 6050 1300 50  0001 L CNN "Mouser Price/Stock"
F 10 "210-3MS" H 6050 1200 50  0001 L CNN "Arrow Part Number"
F 11 "https://www.arrow.com/en/products/210-3ms/cts" H 6050 1100 50  0001 L CNN "Arrow Price/Stock"
	1    5400 1900
	0    1    1    0   
$EndComp
Wire Wire Line
	4900 1900 5200 1900
Connection ~ 5200 1900
Wire Wire Line
	5200 1900 5300 1900
Connection ~ 5300 1900
Wire Wire Line
	5300 1900 5400 1900
Connection ~ 5400 1900
Wire Wire Line
	5400 1900 5650 1900
Wire Wire Line
	5650 1900 5650 2600
$Comp
L SamacSys_Parts:TSOP38240 IC9
U 1 1 6047876C
P 20650 12200
F 0 "IC9" V 20946 12328 50  0000 L CNN
F 1 "TSOP38240" V 21037 12328 50  0000 L CNN
F 2 "TSOP38230" H 21400 12300 50  0001 L CNN
F 3 "http://www.vishay.com/docs/82491/tsop382.pdf" H 21400 12200 50  0001 L CNN
F 4 "Infrared Receivers Minicast 40kHz AGC2" H 21400 12100 50  0001 L CNN "Description"
F 5 "8.55" H 21400 12000 50  0001 L CNN "Height"
F 6 "Vishay" H 21400 11900 50  0001 L CNN "Manufacturer_Name"
F 7 "TSOP38240" H 21400 11800 50  0001 L CNN "Manufacturer_Part_Number"
F 8 "78-TSOP38240" H 21400 11700 50  0001 L CNN "Mouser Part Number"
F 9 "https://www.mouser.co.uk/ProductDetail/Vishay-Semiconductors/TSOP38240?qs=RzxYCzJDjPX5%2Fs9c0DgnqA%3D%3D" H 21400 11600 50  0001 L CNN "Mouser Price/Stock"
F 10 "TSOP38240" H 21400 11500 50  0001 L CNN "Arrow Part Number"
F 11 "https://www.arrow.com/en/products/tsop38240/vishay" H 21400 11400 50  0001 L CNN "Arrow Price/Stock"
	1    20650 12200
	0    1    1    0   
$EndComp
Wire Wire Line
	10200 6200 20950 6200
$Comp
L power:GNDREF #PWR0141
U 1 1 60665748
P 20550 12050
F 0 "#PWR0141" H 20550 11800 50  0001 C CNN
F 1 "GNDREF" H 20555 11877 50  0000 C CNN
F 2 "" H 20550 12050 50  0001 C CNN
F 3 "" H 20550 12050 50  0001 C CNN
	1    20550 12050
	-1   0    0    1   
$EndComp
Text GLabel 20350 12100 0    50   Input ~ 0
+5V
Text GLabel 20750 12100 2    50   Output ~ 0
IR
Wire Wire Line
	20450 12200 20450 12100
Wire Wire Line
	20450 12100 20350 12100
Wire Wire Line
	20550 12200 20550 12050
Wire Wire Line
	20650 12200 20650 12100
Wire Wire Line
	20650 12100 20750 12100
Text GLabel 8550 4750 3    50   Input ~ 0
IR
Wire Wire Line
	8700 4700 8550 4700
Wire Wire Line
	8550 4700 8550 4750
$EndSCHEMATC
